=============================
Started at 23/03/16 0:09:13PM and finished at 25/03/16 0:07:04AM 
=============================
Started at 25/03/16 0:08:27PM and finished at 31/03/16 0:03:21AM 
             precision    recall  f1-score   support

        SAD       0.88      0.93      0.90      2325
        JOY       0.90      0.84      0.87      1837

avg / total       0.89      0.89      0.89      4162

=============================
Started at 04/04/16 0:05:54PM and finished at 04/04/16 0:07:26PM 
             precision    recall  f1-score   support

        SAD       0.89      0.93      0.91      2449
        JOY       0.89      0.84      0.86      1702

avg / total       0.89      0.89      0.89      4151

=============================
Started at 04/04/16 0:11:14PM and finished at 05/04/16 0:12:26AM 
             precision    recall  f1-score   support

        SAD       0.87      0.93      0.90      2325
        JOY       0.89      0.81      0.85      1729

avg / total       0.88      0.88      0.88      4054

=============================
Started at 05/04/16 0:12:26AM and finished at 05/04/16 0:12:26AM 
             precision    recall  f1-score   support

        DIS       0.67      0.10      0.17        20
        TRU       0.86      0.99      0.92       109

avg / total       0.83      0.85      0.80       129

=============================
Started at 05/04/16 0:12:26AM and finished at 05/04/16 0:12:28AM 
             precision    recall  f1-score   support

        FEA       0.89      0.98      0.93       681
        ANG       0.66      0.23      0.34       108

avg / total       0.86      0.88      0.85       789

=============================
Started at 05/04/16 0:12:28AM and finished at 05/04/16 0:12:28AM 
             precision    recall  f1-score   support

        SUR       0.96      1.00      0.98       109
        ANT       1.00      0.89      0.94        38

avg / total       0.97      0.97      0.97       147

=============================
Started at 05/04/16 0:09:42AM and finished at 05/04/16 0:09:42AM 
             precision    recall  f1-score   support

        SAD       0.38      0.91      0.54        78
        JOY       0.87      0.28      0.42       160

avg / total       0.71      0.49      0.46       238

=============================
Started at 05/04/16 0:09:49AM and finished at 05/04/16 0:09:49AM 
             precision    recall  f1-score   support

        SAD       0.38      0.91      0.54        78
        JOY       0.87      0.28      0.42       160

avg / total       0.71      0.49      0.46       238

=============================
CORPUS: experiments/tweets_stocks_emolex.csv
Started at 05/04/16 0:09:55AM and finished at 05/04/16 0:09:55AM 
             precision    recall  f1-score   support

        SAD       0.38      0.91      0.54        78
        JOY       0.87      0.28      0.42       160

avg / total       0.71      0.49      0.46       238

=============================
CORPUS: experiments/tweets_stocks_emolex.csv
Started at 05/04/16 0:09:55AM and finished at 05/04/16 0:09:55AM 
             precision    recall  f1-score   support

        DIS       0.81      0.10      0.18       203
        TRU       0.34      0.95      0.50        98

avg / total       0.65      0.38      0.29       301

=============================
CORPUS: experiments/tweets_stocks_emolex.csv
Started at 05/04/16 0:09:55AM and finished at 05/04/16 0:09:55AM 
             precision    recall  f1-score   support

        FEA       0.39      0.99      0.56        68
        ANG       0.88      0.06      0.12       111

avg / total       0.69      0.41      0.29       179

=============================
CORPUS: experiments/tweets_stocks_emolex.csv
Started at 05/04/16 0:09:55AM and finished at 05/04/16 0:09:55AM 
             precision    recall  f1-score   support

        SUR       0.15      1.00      0.26        88
        ANT       1.00      0.01      0.02       510

avg / total       0.87      0.15      0.05       598

=============================
CORPUS: experiments/tweets_auto-tagged-emolex.csv
Additional Info: Evaluating classifier SVM-Linear: 

Started at 30/05/17 0:10:05PM and finished at 30/05/17 0:10:06PM 
             precision    recall  f1-score   support

     no-JOY       0.72      1.00      0.84        13
        JOY       0.00      0.00      0.00         5

avg / total       0.52      0.72      0.61        18

=============================
CORPUS: experiments/tweets_auto-tagged-emolex.csv
Additional Info: Evaluating classifier SVM-RBF: 

Started at 30/05/17 0:10:06PM and finished at 30/05/17 0:10:06PM 
             precision    recall  f1-score   support

     no-JOY       0.72      1.00      0.84        13
        JOY       0.00      0.00      0.00         5

avg / total       0.52      0.72      0.61        18

=============================
CORPUS: experiments/tweets_auto-tagged-emolex.csv
Additional Info: Evaluating classifier SVM-Linear: 

Started at 30/05/17 0:10:06PM and finished at 30/05/17 0:10:06PM 
             precision    recall  f1-score   support

     no-SAD       1.00      0.30      0.46        10
        SAD       0.53      1.00      0.70         8

avg / total       0.79      0.61      0.57        18

=============================
CORPUS: experiments/tweets_auto-tagged-emolex.csv
Additional Info: Evaluating classifier SVM-RBF: 

Started at 30/05/17 0:10:06PM and finished at 30/05/17 0:10:07PM 
             precision    recall  f1-score   support

     no-SAD       1.00      0.30      0.46        10
        SAD       0.53      1.00      0.70         8

avg / total       0.79      0.61      0.57        18

=============================
CORPUS: experiments/tweets_auto-tagged-emolex.csv
Additional Info: Evaluating classifier SVM-Linear: 

Started at 30/05/17 0:10:07PM and finished at 30/05/17 0:10:07PM 
             precision    recall  f1-score   support

     no-TRU       1.00      1.00      1.00        18

avg / total       1.00      1.00      1.00        18

=============================
CORPUS: experiments/tweets_auto-tagged-emolex.csv
Additional Info: Evaluating classifier SVM-RBF: 

Started at 30/05/17 0:10:07PM and finished at 30/05/17 0:10:07PM 
             precision    recall  f1-score   support

     no-TRU       1.00      1.00      1.00        18

avg / total       1.00      1.00      1.00        18

=============================
CORPUS: experiments/tweets_auto-tagged-emolex.csv
Additional Info: Evaluating classifier SVM-Linear: 

Started at 30/05/17 0:10:18PM and finished at 30/05/17 0:10:18PM 
             precision    recall  f1-score   support

     no-JOY       0.80      1.00      0.89        12
        JOY       0.00      0.00      0.00         3

avg / total       0.64      0.80      0.71        15

=============================
CORPUS: experiments/tweets_auto-tagged-emolex.csv
Additional Info: Evaluating classifier SVM-RBF: 

Started at 30/05/17 0:10:18PM and finished at 30/05/17 0:10:18PM 
             precision    recall  f1-score   support

     no-JOY       0.80      1.00      0.89        12
        JOY       0.00      0.00      0.00         3

avg / total       0.64      0.80      0.71        15

=============================
CORPUS: experiments/tweets_auto-tagged-emolex.csv
Additional Info: Evaluating classifier SVM-POLYNOMIAL: 

Started at 30/05/17 0:10:18PM and finished at 30/05/17 0:10:19PM 
             precision    recall  f1-score   support

     no-JOY       0.80      1.00      0.89        12
        JOY       0.00      0.00      0.00         3

avg / total       0.64      0.80      0.71        15

=============================
CORPUS: experiments/tweets_auto-tagged-emolex.csv
Additional Info: Evaluating classifier SVM-Linear: 

Started at 30/05/17 0:10:19PM and finished at 30/05/17 0:10:19PM 
             precision    recall  f1-score   support

     no-SAD       0.00      0.00      0.00         9
        SAD       0.40      1.00      0.57         6

avg / total       0.16      0.40      0.23        15

=============================
CORPUS: experiments/tweets_auto-tagged-emolex.csv
Additional Info: Evaluating classifier SVM-RBF: 

Started at 30/05/17 0:10:19PM and finished at 30/05/17 0:10:19PM 
             precision    recall  f1-score   support

     no-SAD       0.00      0.00      0.00         9
        SAD       0.40      1.00      0.57         6

avg / total       0.16      0.40      0.23        15

=============================
CORPUS: experiments/tweets_auto-tagged-emolex.csv
Additional Info: Evaluating classifier SVM-POLYNOMIAL: 

Started at 30/05/17 0:10:19PM and finished at 30/05/17 0:10:19PM 
             precision    recall  f1-score   support

     no-SAD       0.60      1.00      0.75         9
        SAD       0.00      0.00      0.00         6

avg / total       0.36      0.60      0.45        15

=============================
CORPUS: experiments/tweets_auto-tagged-emolex.csv
Additional Info: Evaluating classifier SVM-Linear: 

Started at 30/05/17 0:10:19PM and finished at 30/05/17 0:10:19PM 
             precision    recall  f1-score   support

     no-TRU       1.00      1.00      1.00        15

avg / total       1.00      1.00      1.00        15

=============================
CORPUS: experiments/tweets_auto-tagged-emolex.csv
Additional Info: Evaluating classifier SVM-RBF: 

Started at 30/05/17 0:10:19PM and finished at 30/05/17 0:10:19PM 
             precision    recall  f1-score   support

     no-TRU       1.00      1.00      1.00        15

avg / total       1.00      1.00      1.00        15

=============================
CORPUS: experiments/tweets_auto-tagged-emolex.csv
Additional Info: Evaluating classifier SVM-POLYNOMIAL: 

Started at 30/05/17 0:10:19PM and finished at 30/05/17 0:10:19PM 
             precision    recall  f1-score   support

     no-TRU       1.00      1.00      1.00        15

avg / total       1.00      1.00      1.00        15

=============================
CORPUS: experiments/tweets_auto-tagged-emolex.csv
Additional Info: Evaluating classifier SVM-Linear: 

Started at 30/05/17 0:10:19PM and finished at 30/05/17 0:10:19PM 
             precision    recall  f1-score   support

     no-DIS       1.00      1.00      1.00        15

avg / total       1.00      1.00      1.00        15

=============================
CORPUS: experiments/tweets_auto-tagged-emolex.csv
Additional Info: Evaluating classifier SVM-RBF: 

Started at 30/05/17 0:10:19PM and finished at 30/05/17 0:10:19PM 
             precision    recall  f1-score   support

     no-DIS       1.00      1.00      1.00        15

avg / total       1.00      1.00      1.00        15

=============================
CORPUS: experiments/tweets_auto-tagged-emolex.csv
Additional Info: Evaluating classifier SVM-POLYNOMIAL: 

Started at 30/05/17 0:10:19PM and finished at 30/05/17 0:10:19PM 
             precision    recall  f1-score   support

     no-DIS       1.00      1.00      1.00        15

avg / total       1.00      1.00      1.00        15

=============================
CORPUS: experiments/tweets_auto-tagged-emolex.csv
Additional Info: Evaluating classifier SVM-Linear: 

Started at 30/05/17 0:10:32PM and finished at 30/05/17 0:10:32PM 
             precision    recall  f1-score   support

     no-FEA       0.73      1.00      0.85        11
        FEA       0.00      0.00      0.00         4

avg / total       0.54      0.73      0.62        15

=============================
CORPUS: experiments/tweets_auto-tagged-emolex.csv
Additional Info: Evaluating classifier SVM-RBF: 

Started at 30/05/17 0:10:32PM and finished at 30/05/17 0:10:32PM 
             precision    recall  f1-score   support

     no-FEA       0.73      1.00      0.85        11
        FEA       0.00      0.00      0.00         4

avg / total       0.54      0.73      0.62        15

=============================
CORPUS: experiments/tweets_auto-tagged-emolex.csv
Additional Info: Evaluating classifier SVM-POLYNOMIAL: 

Started at 30/05/17 0:10:32PM and finished at 30/05/17 0:10:32PM 
             precision    recall  f1-score   support

     no-FEA       0.73      1.00      0.85        11
        FEA       0.00      0.00      0.00         4

avg / total       0.54      0.73      0.62        15

=============================
CORPUS: experiments/tweets_auto-tagged-emolex.csv
Additional Info: Evaluating classifier SVM-Linear: 

Started at 30/05/17 0:10:32PM and finished at 30/05/17 0:10:32PM 
             precision    recall  f1-score   support

     no-SUR       1.00      1.00      1.00        15

avg / total       1.00      1.00      1.00        15

=============================
CORPUS: experiments/tweets_auto-tagged-emolex.csv
Additional Info: Evaluating classifier SVM-RBF: 

Started at 30/05/17 0:10:32PM and finished at 30/05/17 0:10:32PM 
             precision    recall  f1-score   support

     no-SUR       1.00      1.00      1.00        15

avg / total       1.00      1.00      1.00        15

=============================
CORPUS: experiments/tweets_auto-tagged-emolex.csv
Additional Info: Evaluating classifier SVM-POLYNOMIAL: 

Started at 30/05/17 0:10:32PM and finished at 30/05/17 0:10:32PM 
             precision    recall  f1-score   support

     no-SUR       1.00      1.00      1.00        15

avg / total       1.00      1.00      1.00        15

=============================
CORPUS: experiments/tweets_auto-tagged-emolex.csv
Additional Info: Evaluating classifier SVM-Linear: 

Started at 30/05/17 0:10:32PM and finished at 30/05/17 0:10:32PM 
             precision    recall  f1-score   support

     no-JOY       0.80      1.00      0.89        12
        JOY       0.00      0.00      0.00         3

avg / total       0.64      0.80      0.71        15

=============================
CORPUS: experiments/tweets_auto-tagged-emolex.csv
Additional Info: Evaluating classifier SVM-RBF: 

Started at 30/05/17 0:10:32PM and finished at 30/05/17 0:10:32PM 
             precision    recall  f1-score   support

     no-JOY       0.80      1.00      0.89        12
        JOY       0.00      0.00      0.00         3

avg / total       0.64      0.80      0.71        15

=============================
CORPUS: experiments/tweets_auto-tagged-emolex.csv
Additional Info: Evaluating classifier SVM-POLYNOMIAL: 

Started at 30/05/17 0:10:32PM and finished at 30/05/17 0:10:32PM 
             precision    recall  f1-score   support

     no-JOY       0.80      1.00      0.89        12
        JOY       0.00      0.00      0.00         3

avg / total       0.64      0.80      0.71        15

=============================
CORPUS: experiments/tweets_auto-tagged-emolex.csv
Additional Info: Evaluating classifier SVM-Linear: 

Started at 30/05/17 0:10:32PM and finished at 30/05/17 0:10:32PM 
             precision    recall  f1-score   support

     no-SAD       0.00      0.00      0.00         9
        SAD       0.36      0.83      0.50         6

avg / total       0.14      0.33      0.20        15

=============================
CORPUS: experiments/tweets_auto-tagged-emolex.csv
Additional Info: Evaluating classifier SVM-RBF: 

Started at 30/05/17 0:10:32PM and finished at 30/05/17 0:10:32PM 
             precision    recall  f1-score   support

     no-SAD       0.00      0.00      0.00         9
        SAD       0.36      0.83      0.50         6

avg / total       0.14      0.33      0.20        15

=============================
CORPUS: experiments/tweets_auto-tagged-emolex.csv
Additional Info: Evaluating classifier SVM-POLYNOMIAL: 

Started at 30/05/17 0:10:32PM and finished at 30/05/17 0:10:32PM 
             precision    recall  f1-score   support

     no-SAD       0.00      0.00      0.00         9
        SAD       0.36      0.83      0.50         6

avg / total       0.14      0.33      0.20        15

=============================
CORPUS: experiments/tweets_auto-tagged-emolex.csv
Additional Info: Evaluating classifier SVM-Linear: 

Started at 30/05/17 0:10:32PM and finished at 30/05/17 0:10:32PM 
             precision    recall  f1-score   support

     no-TRU       1.00      1.00      1.00        15

avg / total       1.00      1.00      1.00        15

=============================
CORPUS: experiments/tweets_auto-tagged-emolex.csv
Additional Info: Evaluating classifier SVM-RBF: 

Started at 30/05/17 0:10:32PM and finished at 30/05/17 0:10:32PM 
             precision    recall  f1-score   support

     no-TRU       1.00      1.00      1.00        15

avg / total       1.00      1.00      1.00        15

=============================
CORPUS: experiments/tweets_auto-tagged-emolex.csv
Additional Info: Evaluating classifier SVM-POLYNOMIAL: 

Started at 30/05/17 0:10:32PM and finished at 30/05/17 0:10:32PM 
             precision    recall  f1-score   support

     no-TRU       1.00      1.00      1.00        15

avg / total       1.00      1.00      1.00        15

=============================
CORPUS: experiments/tweets_auto-tagged-emolex.csv
Additional Info: Evaluating classifier SVM-Linear: 

Started at 30/05/17 0:10:32PM and finished at 30/05/17 0:10:32PM 
             precision    recall  f1-score   support

     no-DIS       1.00      0.93      0.97        15
        DIS       0.00      0.00      0.00         0

avg / total       1.00      0.93      0.97        15

=============================
CORPUS: experiments/tweets_auto-tagged-emolex.csv
Additional Info: Evaluating classifier SVM-RBF: 

Started at 30/05/17 0:10:32PM and finished at 30/05/17 0:10:32PM 
             precision    recall  f1-score   support

     no-DIS       1.00      1.00      1.00        15

avg / total       1.00      1.00      1.00        15

=============================
CORPUS: experiments/tweets_auto-tagged-emolex.csv
Additional Info: Evaluating classifier SVM-POLYNOMIAL: 

Started at 30/05/17 0:10:32PM and finished at 30/05/17 0:10:32PM 
             precision    recall  f1-score   support

     no-DIS       1.00      1.00      1.00        15

avg / total       1.00      1.00      1.00        15

=============================
CORPUS: experiments/tweets_auto-tagged-emolex.csv
Additional Info: Evaluating classifier SVM-Linear: 

Started at 30/05/17 0:10:32PM and finished at 30/05/17 0:10:32PM 
             precision    recall  f1-score   support

     no-FEA       0.73      1.00      0.85        11
        FEA       0.00      0.00      0.00         4

avg / total       0.54      0.73      0.62        15

=============================
CORPUS: experiments/tweets_auto-tagged-emolex.csv
Additional Info: Evaluating classifier SVM-RBF: 

Started at 30/05/17 0:10:32PM and finished at 30/05/17 0:10:32PM 
             precision    recall  f1-score   support

     no-FEA       0.73      1.00      0.85        11
        FEA       0.00      0.00      0.00         4

avg / total       0.54      0.73      0.62        15

=============================
CORPUS: experiments/tweets_auto-tagged-emolex.csv
Additional Info: Evaluating classifier SVM-POLYNOMIAL: 

Started at 30/05/17 0:10:32PM and finished at 30/05/17 0:10:32PM 
             precision    recall  f1-score   support

     no-FEA       0.73      1.00      0.85        11
        FEA       0.00      0.00      0.00         4

avg / total       0.54      0.73      0.62        15

=============================
CORPUS: experiments/tweets_auto-tagged-emolex.csv
Additional Info: Evaluating classifier SVM-Linear: 

Started at 30/05/17 0:10:32PM and finished at 30/05/17 0:10:32PM 
             precision    recall  f1-score   support

     no-SUR       1.00      1.00      1.00        15

avg / total       1.00      1.00      1.00        15

=============================
CORPUS: experiments/tweets_auto-tagged-emolex.csv
Additional Info: Evaluating classifier SVM-RBF: 

Started at 30/05/17 0:10:32PM and finished at 30/05/17 0:10:32PM 
             precision    recall  f1-score   support

     no-SUR       1.00      1.00      1.00        15

avg / total       1.00      1.00      1.00        15

=============================
CORPUS: experiments/tweets_auto-tagged-emolex.csv
Additional Info: Evaluating classifier SVM-POLYNOMIAL: 

Started at 30/05/17 0:10:32PM and finished at 30/05/17 0:10:32PM 
             precision    recall  f1-score   support

     no-SUR       1.00      1.00      1.00        15

avg / total       1.00      1.00      1.00        15

=============================
CORPUS: experiments/tweets_auto-tagged-emolex.csv
Additional Info: Evaluating classifier SVM-Linear: 

Started at 30/05/17 0:10:32PM and finished at 30/05/17 0:10:32PM 
             precision    recall  f1-score   support

        SAD       0.67      1.00      0.80         6
        JOY       0.00      0.00      0.00         3

avg / total       0.44      0.67      0.53         9

=============================
CORPUS: experiments/tweets_auto-tagged-emolex.csv
Additional Info: Evaluating classifier SVM-RBF: 

Started at 30/05/17 0:10:32PM and finished at 30/05/17 0:10:32PM 
             precision    recall  f1-score   support

        SAD       0.67      1.00      0.80         6
        JOY       0.00      0.00      0.00         3

avg / total       0.44      0.67      0.53         9

=============================
CORPUS: experiments/tweets_auto-tagged-emolex.csv
Additional Info: Evaluating classifier SVM-POLYNOMIAL: 

Started at 30/05/17 0:10:32PM and finished at 30/05/17 0:10:32PM 
             precision    recall  f1-score   support

        SAD       0.67      1.00      0.80         6
        JOY       0.00      0.00      0.00         3

avg / total       0.44      0.67      0.53         9

=============================
CORPUS: experiments/tweets_auto-tagged-emolex.csv
Additional Info: Evaluating classifier cnn: 

Started at 07/11/17 0:12:43 and finished at 07/11/17 0:12:44 
             precision    recall  f1-score   support

        SAD       0.66      1.00      0.79        38
        JOY       0.00      0.00      0.00        20

avg / total       0.43      0.66      0.52        58

=============================
CORPUS: experiments/tweets_auto-tagged-emolex.csv
Additional Info: Evaluating classifier cnn: 

Started at 07/11/17 0:12:45 and finished at 07/11/17 0:12:45 
             precision    recall  f1-score   support

        DIS       0.50      1.00      0.67         2
        TRU       0.00      0.00      0.00         2

avg / total       0.25      0.50      0.33         4

=============================
CORPUS: experiments/tweets_auto-tagged-emolex.csv
Additional Info: Evaluating classifier cnn: 

Started at 07/11/17 0:12:45 and finished at 07/11/17 0:12:45 
             precision    recall  f1-score   support

        SUR       1.00      1.00      1.00         1

avg / total       1.00      1.00      1.00         1

=============================
CORPUS: experiments/tweets_auto-tagged-emolex.csv
Additional Info: Evaluating classifier cnn: 

Started at 07/11/17 0:12:45 and finished at 07/11/17 0:12:45 
             precision    recall  f1-score   support

        FEA       0.75      1.00      0.86         9
        ANG       0.00      0.00      0.00         3

avg / total       0.56      0.75      0.64        12

=============================
CORPUS: experiments/tweets_auto-tagged-emolex.csv
Additional Info: Evaluating classifier cnn: 

Started at 07/11/17 0:12:55 and finished at 07/11/17 0:12:55 
             precision    recall  f1-score   support

        SAD       0.84      0.80      0.82       400
        JOY       0.68      0.75      0.72       236

avg / total       0.78      0.78      0.78       636

=============================
CORPUS: experiments/tweets_auto-tagged-emolex.csv
Additional Info: Evaluating classifier cnn: 

Started at 07/11/17 0:12:56 and finished at 07/11/17 0:12:56 
             precision    recall  f1-score   support

        DIS       0.70      1.00      0.83        45
        TRU       0.00      0.00      0.00        19

avg / total       0.49      0.70      0.58        64

=============================
CORPUS: experiments/tweets_auto-tagged-emolex.csv
Additional Info: Evaluating classifier cnn: 

Started at 07/11/17 0:12:56 and finished at 07/11/17 0:12:56 
             precision    recall  f1-score   support

        SUR       0.86      1.00      0.92        24
        ANT       0.00      0.00      0.00         4

avg / total       0.73      0.86      0.79        28

=============================
CORPUS: experiments/tweets_auto-tagged-emolex.csv
Additional Info: Evaluating classifier cnn: 

Started at 07/11/17 0:12:56 and finished at 07/11/17 0:12:56 
             precision    recall  f1-score   support

        FEA       0.88      1.00      0.94       101
        ANG       0.00      0.00      0.00        14

avg / total       0.77      0.88      0.82       115

=============================
CORPUS: experiments/tweets_auto-tagged-emolex.csv
Additional Info: Evaluating classifier cnn: 

Started at 16/12/17 0:07:53PM and finished at 16/12/17 0:10:01PM 
             precision    recall  f1-score   support

        SAD       0.92      0.94      0.93     22105
        JOY       0.91      0.86      0.89     14093

avg / total       0.91      0.91      0.91     36198

=============================
CORPUS: experiments/tweets_auto-tagged-emolex.csv
Additional Info: Evaluating classifier cnn: 

Started at 16/12/17 0:10:01PM and finished at 16/12/17 0:10:12PM 
             precision    recall  f1-score   support

        DIS       0.90      0.91      0.91      1921
        TRU       0.83      0.82      0.83      1031

avg / total       0.88      0.88      0.88      2952

=============================
CORPUS: experiments/tweets_auto-tagged-emolex.csv
Additional Info: Evaluating classifier cnn: 

Started at 16/12/17 0:10:12PM and finished at 16/12/17 0:10:16PM 
             precision    recall  f1-score   support

        SUR       0.98      0.93      0.96      1006
        ANT       0.78      0.94      0.85       260

avg / total       0.94      0.93      0.93      1266

=============================
CORPUS: experiments/tweets_auto-tagged-emolex.csv
Additional Info: Evaluating classifier cnn: 

Started at 16/12/17 0:10:17PM and finished at 16/12/17 0:10:39PM 
             precision    recall  f1-score   support

        FEA       0.93      0.97      0.95      5540
        ANG       0.66      0.47      0.55       796

avg / total       0.89      0.90      0.90      6336

