,classifier,kernel,decay,cv_cycle,prec,rec,f1
0,JOY_vs_SAD,MOS-KERNEL,0.0,1,,0.0,
0,JOY_vs_SAD,MOS-KERNEL,0.1,1,97.25,98.42,97.83150201870495
0,JOY_vs_SAD,MOS-KERNEL,0.2,1,96.41,98.22,97.30658377434106
0,JOY_vs_SAD,MOS-KERNEL,0.3,1,94.76,98.12,96.41073413521362
0,JOY_vs_SAD,MOS-KERNEL,0.4,1,90.53,98.14,94.18152541474531
0,JOY_vs_SAD,MOS-KERNEL,0.5,1,84.66,98.14,90.90298030634573
0,JOY_vs_SAD,MOS-KERNEL,0.6,1,78.99,98.25,87.5735443466486
0,JOY_vs_SAD,MOS-KERNEL,0.7,1,73.84,98.44,84.3836730903181
0,JOY_vs_SAD,MOS-KERNEL,0.8,1,69.88,98.74,81.84024670857549
0,JOY_vs_SAD,MOS-KERNEL,0.9,1,66.98,99.08,79.92747681560883
0,JOY_vs_SAD,MOS-KERNEL,1.0,1,65.18,99.35,78.71674466662616
0,JOY_vs_SAD,ST-KERNEL,0.0,1,,0.0,
0,JOY_vs_SAD,ST-KERNEL,0.1,1,97.25,98.42,97.83150201870495
0,JOY_vs_SAD,ST-KERNEL,0.2,1,96.41,98.22,97.30658377434106
0,JOY_vs_SAD,ST-KERNEL,0.3,1,94.76,98.12,96.41073413521362
0,JOY_vs_SAD,ST-KERNEL,0.4,1,90.53,98.14,94.18152541474531
0,JOY_vs_SAD,ST-KERNEL,0.5,1,84.66,98.14,90.90298030634573
0,JOY_vs_SAD,ST-KERNEL,0.6,1,78.99,98.25,87.5735443466486
0,JOY_vs_SAD,ST-KERNEL,0.7,1,73.84,98.44,84.3836730903181
0,JOY_vs_SAD,ST-KERNEL,0.8,1,69.88,98.74,81.84024670857549
0,JOY_vs_SAD,ST-KERNEL,0.9,1,66.98,99.08,79.92747681560883
0,JOY_vs_SAD,ST-KERNEL,1.0,1,65.18,99.35,78.71674466662616
0,JOY_vs_SAD,SST-KERNEL,0.0,1,,0.0,
0,JOY_vs_SAD,SST-KERNEL,0.1,1,97.25,98.42,97.83150201870495
0,JOY_vs_SAD,SST-KERNEL,0.2,1,96.41,98.22,97.30658377434106
0,JOY_vs_SAD,SST-KERNEL,0.3,1,94.76,98.12,96.41073413521362
0,JOY_vs_SAD,SST-KERNEL,0.4,1,90.53,98.14,94.18152541474531
0,JOY_vs_SAD,SST-KERNEL,0.5,1,84.66,98.14,90.90298030634573
0,JOY_vs_SAD,SST-KERNEL,0.6,1,78.99,98.25,87.5735443466486
0,JOY_vs_SAD,SST-KERNEL,0.7,1,73.84,98.44,84.3836730903181
0,JOY_vs_SAD,SST-KERNEL,0.8,1,69.88,98.74,81.84024670857549
0,JOY_vs_SAD,SST-KERNEL,0.9,1,66.98,99.08,79.92747681560883
0,JOY_vs_SAD,SST-KERNEL,1.0,1,65.18,99.35,78.71674466662616
0,JOY_vs_SAD,SST-bow-KERNEL,0.0,1,,0.0,
0,JOY_vs_SAD,SST-bow-KERNEL,0.1,1,97.25,98.42,97.83150201870495
0,JOY_vs_SAD,SST-bow-KERNEL,0.2,1,96.41,98.22,97.30658377434106
0,JOY_vs_SAD,SST-bow-KERNEL,0.3,1,94.76,98.12,96.41073413521362
0,JOY_vs_SAD,SST-bow-KERNEL,0.4,1,90.53,98.14,94.18152541474531
0,JOY_vs_SAD,SST-bow-KERNEL,0.5,1,84.66,98.14,90.90298030634573
0,JOY_vs_SAD,SST-bow-KERNEL,0.6,1,78.99,98.25,87.5735443466486
0,JOY_vs_SAD,SST-bow-KERNEL,0.7,1,73.84,98.44,84.3836730903181
0,JOY_vs_SAD,SST-bow-KERNEL,0.8,1,69.88,98.74,81.84024670857549
0,JOY_vs_SAD,SST-bow-KERNEL,0.9,1,66.98,99.08,79.92747681560883
0,JOY_vs_SAD,SST-bow-KERNEL,1.0,1,65.18,99.35,78.71674466662616
0,JOY_vs_SAD,MOS-KERNEL,0.0,2,,0.0,
0,JOY_vs_SAD,MOS-KERNEL,0.1,2,97.33,98.4,97.862075307822
0,JOY_vs_SAD,MOS-KERNEL,0.2,2,96.61,98.15,97.37391148079689
0,JOY_vs_SAD,MOS-KERNEL,0.3,2,94.88,98.05,96.43895713471206
0,JOY_vs_SAD,MOS-KERNEL,0.4,2,90.82,98.04,94.29199195171026
0,JOY_vs_SAD,MOS-KERNEL,0.5,2,85.16,98.11,91.17747149015115
0,JOY_vs_SAD,MOS-KERNEL,0.6,2,79.56,98.23,87.91471736318128
0,JOY_vs_SAD,MOS-KERNEL,0.7,2,74.37,98.44,84.72869394132285
0,JOY_vs_SAD,MOS-KERNEL,0.8,2,70.23,98.73,82.07632457386364
0,JOY_vs_SAD,MOS-KERNEL,0.9,2,67.22,99.06,80.09157084435891
0,JOY_vs_SAD,MOS-KERNEL,1.0,2,65.36,99.34,78.84471645415908
0,JOY_vs_SAD,ST-KERNEL,0.0,2,,0.0,
0,JOY_vs_SAD,ST-KERNEL,0.1,2,97.33,98.4,97.862075307822
0,JOY_vs_SAD,ST-KERNEL,0.2,2,96.61,98.15,97.37391148079689
0,JOY_vs_SAD,ST-KERNEL,0.3,2,94.88,98.05,96.43895713471206
0,JOY_vs_SAD,ST-KERNEL,0.4,2,90.82,98.04,94.29199195171026
0,JOY_vs_SAD,ST-KERNEL,0.5,2,85.16,98.11,91.17747149015115
0,JOY_vs_SAD,ST-KERNEL,0.6,2,79.56,98.23,87.91471736318128
0,JOY_vs_SAD,ST-KERNEL,0.7,2,74.37,98.44,84.72869394132285
0,JOY_vs_SAD,ST-KERNEL,0.8,2,70.23,98.73,82.07632457386364
0,JOY_vs_SAD,ST-KERNEL,0.9,2,67.22,99.06,80.09157084435891
0,JOY_vs_SAD,ST-KERNEL,1.0,2,65.36,99.34,78.84471645415908
0,JOY_vs_SAD,SST-KERNEL,0.0,2,,0.0,
0,JOY_vs_SAD,SST-KERNEL,0.1,2,97.33,98.4,97.862075307822
0,JOY_vs_SAD,SST-KERNEL,0.2,2,96.61,98.15,97.37391148079689
0,JOY_vs_SAD,SST-KERNEL,0.3,2,94.88,98.05,96.43895713471206
0,JOY_vs_SAD,SST-KERNEL,0.4,2,90.82,98.04,94.29199195171026
0,JOY_vs_SAD,SST-KERNEL,0.5,2,85.16,98.11,91.17747149015115
0,JOY_vs_SAD,SST-KERNEL,0.6,2,79.56,98.23,87.91471736318128
0,JOY_vs_SAD,SST-KERNEL,0.7,2,74.37,98.44,84.72869394132285
0,JOY_vs_SAD,SST-KERNEL,0.8,2,70.23,98.73,82.07632457386364
0,JOY_vs_SAD,SST-KERNEL,0.9,2,67.22,99.06,80.09157084435891
0,JOY_vs_SAD,SST-KERNEL,1.0,2,65.36,99.34,78.84471645415908
0,JOY_vs_SAD,SST-bow-KERNEL,0.0,2,,0.0,
0,JOY_vs_SAD,SST-bow-KERNEL,0.1,2,97.33,98.4,97.862075307822
0,JOY_vs_SAD,SST-bow-KERNEL,0.2,2,96.61,98.15,97.37391148079689
0,JOY_vs_SAD,SST-bow-KERNEL,0.3,2,94.88,98.05,96.43895713471206
0,JOY_vs_SAD,SST-bow-KERNEL,0.4,2,90.82,98.04,94.29199195171026
0,JOY_vs_SAD,SST-bow-KERNEL,0.5,2,85.16,98.11,91.17747149015115
0,JOY_vs_SAD,SST-bow-KERNEL,0.6,2,79.56,98.23,87.91471736318128
0,JOY_vs_SAD,SST-bow-KERNEL,0.7,2,74.37,98.44,84.72869394132285
0,JOY_vs_SAD,SST-bow-KERNEL,0.8,2,70.23,98.73,82.07632457386364
0,JOY_vs_SAD,SST-bow-KERNEL,0.9,2,67.22,99.06,80.09157084435891
0,JOY_vs_SAD,SST-bow-KERNEL,1.0,2,65.36,99.34,78.84471645415908
0,JOY_vs_SAD,MOS-KERNEL,0.0,3,,0.0,
0,JOY_vs_SAD,MOS-KERNEL,0.1,3,97.35,98.33,97.8375459934587
0,JOY_vs_SAD,MOS-KERNEL,0.2,3,96.51,98.12,97.30834095463187
0,JOY_vs_SAD,MOS-KERNEL,0.3,3,94.78,98.08,96.40176708493206
0,JOY_vs_SAD,MOS-KERNEL,0.4,3,90.64,98.13,94.23640620861366
0,JOY_vs_SAD,MOS-KERNEL,0.5,3,84.68,98.19,90.9359566905452
0,JOY_vs_SAD,MOS-KERNEL,0.6,3,79.21,98.39,87.7643231981982
0,JOY_vs_SAD,MOS-KERNEL,0.7,3,74.03,98.59,84.56282817749971
0,JOY_vs_SAD,MOS-KERNEL,0.8,3,70.01,98.92,81.99122950334458
0,JOY_vs_SAD,MOS-KERNEL,0.9,3,66.96,99.24,79.9652274368231
0,JOY_vs_SAD,MOS-KERNEL,1.0,3,65.18,99.51,78.76691723844802
0,JOY_vs_SAD,ST-KERNEL,0.0,3,,0.0,
0,JOY_vs_SAD,ST-KERNEL,0.1,3,97.35,98.33,97.8375459934587
0,JOY_vs_SAD,ST-KERNEL,0.2,3,96.51,98.12,97.30834095463187
0,JOY_vs_SAD,ST-KERNEL,0.3,3,94.78,98.08,96.40176708493206
0,JOY_vs_SAD,ST-KERNEL,0.4,3,90.64,98.13,94.23640620861366
0,JOY_vs_SAD,ST-KERNEL,0.5,3,84.68,98.19,90.9359566905452
0,JOY_vs_SAD,ST-KERNEL,0.6,3,79.21,98.39,87.7643231981982
0,JOY_vs_SAD,ST-KERNEL,0.7,3,74.03,98.59,84.56282817749971
0,JOY_vs_SAD,ST-KERNEL,0.8,3,70.01,98.92,81.99122950334458
0,JOY_vs_SAD,ST-KERNEL,0.9,3,66.96,99.24,79.9652274368231
0,JOY_vs_SAD,ST-KERNEL,1.0,3,65.18,99.51,78.76691723844802
0,JOY_vs_SAD,SST-KERNEL,0.0,3,,0.0,
0,JOY_vs_SAD,SST-KERNEL,0.1,3,97.35,98.33,97.8375459934587
0,JOY_vs_SAD,SST-KERNEL,0.2,3,96.51,98.12,97.30834095463187
0,JOY_vs_SAD,SST-KERNEL,0.3,3,94.78,98.08,96.40176708493206
0,JOY_vs_SAD,SST-KERNEL,0.4,3,90.64,98.13,94.23640620861366
0,JOY_vs_SAD,SST-KERNEL,0.5,3,84.68,98.19,90.9359566905452
0,JOY_vs_SAD,SST-KERNEL,0.6,3,79.21,98.39,87.7643231981982
0,JOY_vs_SAD,SST-KERNEL,0.7,3,74.03,98.59,84.56282817749971
0,JOY_vs_SAD,SST-KERNEL,0.8,3,70.01,98.92,81.99122950334458
0,JOY_vs_SAD,SST-KERNEL,0.9,3,66.96,99.24,79.9652274368231
0,JOY_vs_SAD,SST-KERNEL,1.0,3,65.18,99.51,78.76691723844802
0,JOY_vs_SAD,SST-bow-KERNEL,0.0,3,,0.0,
0,JOY_vs_SAD,SST-bow-KERNEL,0.1,3,97.35,98.33,97.8375459934587
0,JOY_vs_SAD,SST-bow-KERNEL,0.2,3,96.51,98.12,97.30834095463187
0,JOY_vs_SAD,SST-bow-KERNEL,0.3,3,94.78,98.08,96.40176708493206
0,JOY_vs_SAD,SST-bow-KERNEL,0.4,3,90.64,98.13,94.23640620861366
0,JOY_vs_SAD,SST-bow-KERNEL,0.5,3,84.68,98.19,90.9359566905452
0,JOY_vs_SAD,SST-bow-KERNEL,0.6,3,79.21,98.39,87.7643231981982
0,JOY_vs_SAD,SST-bow-KERNEL,0.7,3,74.03,98.59,84.56282817749971
0,JOY_vs_SAD,SST-bow-KERNEL,0.8,3,70.01,98.92,81.99122950334458
0,JOY_vs_SAD,SST-bow-KERNEL,0.9,3,66.96,99.24,79.9652274368231
0,JOY_vs_SAD,SST-bow-KERNEL,1.0,3,65.18,99.51,78.76691723844802
0,TRU_vs_DIS,MOS-KERNEL,0.0,1,,0.0,
0,TRU_vs_DIS,MOS-KERNEL,0.1,1,84.77,90.11,87.3584709515096
0,TRU_vs_DIS,MOS-KERNEL,0.2,1,83.36,89.4,86.27441537392916
0,TRU_vs_DIS,MOS-KERNEL,0.3,1,77.91,90.17,83.59286887196573
0,TRU_vs_DIS,MOS-KERNEL,0.4,1,72.98,90.79,80.91658057031202
0,TRU_vs_DIS,MOS-KERNEL,0.5,1,70.21,92.24,79.73124530624807
0,TRU_vs_DIS,MOS-KERNEL,0.6,1,68.07,93.53,78.7943948019802
0,TRU_vs_DIS,MOS-KERNEL,0.7,1,66.83,94.7,78.36068841701233
0,TRU_vs_DIS,MOS-KERNEL,0.8,1,65.99,95.7,78.1154431319191
0,TRU_vs_DIS,MOS-KERNEL,0.9,1,65.53,96.64,78.10099525189615
0,TRU_vs_DIS,MOS-KERNEL,1.0,1,65.01,97.13,77.88850746268658
0,TRU_vs_DIS,ST-KERNEL,0.0,1,,0.0,
0,TRU_vs_DIS,ST-KERNEL,0.1,1,84.77,90.11,87.3584709515096
0,TRU_vs_DIS,ST-KERNEL,0.2,1,83.36,89.4,86.27441537392916
0,TRU_vs_DIS,ST-KERNEL,0.3,1,77.91,90.17,83.59286887196573
0,TRU_vs_DIS,ST-KERNEL,0.4,1,72.98,90.79,80.91658057031202
0,TRU_vs_DIS,ST-KERNEL,0.5,1,70.21,92.24,79.73124530624807
0,TRU_vs_DIS,ST-KERNEL,0.6,1,68.07,93.53,78.7943948019802
0,TRU_vs_DIS,ST-KERNEL,0.7,1,66.83,94.7,78.36068841701233
0,TRU_vs_DIS,ST-KERNEL,0.8,1,65.99,95.7,78.1154431319191
0,TRU_vs_DIS,ST-KERNEL,0.9,1,65.53,96.64,78.10099525189615
0,TRU_vs_DIS,ST-KERNEL,1.0,1,65.01,97.13,77.88850746268658
0,TRU_vs_DIS,SST-KERNEL,0.0,1,,0.0,
0,TRU_vs_DIS,SST-KERNEL,0.1,1,84.77,90.11,87.3584709515096
0,TRU_vs_DIS,SST-KERNEL,0.2,1,83.36,89.4,86.27441537392916
0,TRU_vs_DIS,SST-KERNEL,0.3,1,77.91,90.17,83.59286887196573
0,TRU_vs_DIS,SST-KERNEL,0.4,1,72.98,90.79,80.91658057031202
0,TRU_vs_DIS,SST-KERNEL,0.5,1,70.21,92.24,79.73124530624807
0,TRU_vs_DIS,SST-KERNEL,0.6,1,68.07,93.53,78.7943948019802
0,TRU_vs_DIS,SST-KERNEL,0.7,1,66.83,94.7,78.36068841701233
0,TRU_vs_DIS,SST-KERNEL,0.8,1,65.99,95.7,78.1154431319191
0,TRU_vs_DIS,SST-KERNEL,0.9,1,65.53,96.64,78.10099525189615
0,TRU_vs_DIS,SST-KERNEL,1.0,1,65.01,97.13,77.88850746268658
0,TRU_vs_DIS,SST-bow-KERNEL,0.0,1,,0.0,
0,TRU_vs_DIS,SST-bow-KERNEL,0.1,1,84.77,90.11,87.3584709515096
0,TRU_vs_DIS,SST-bow-KERNEL,0.2,1,83.36,89.4,86.27441537392916
0,TRU_vs_DIS,SST-bow-KERNEL,0.3,1,77.91,90.17,83.59286887196573
0,TRU_vs_DIS,SST-bow-KERNEL,0.4,1,72.98,90.79,80.91658057031202
0,TRU_vs_DIS,SST-bow-KERNEL,0.5,1,70.21,92.24,79.73124530624807
0,TRU_vs_DIS,SST-bow-KERNEL,0.6,1,68.07,93.53,78.7943948019802
0,TRU_vs_DIS,SST-bow-KERNEL,0.7,1,66.83,94.7,78.36068841701233
0,TRU_vs_DIS,SST-bow-KERNEL,0.8,1,65.99,95.7,78.1154431319191
0,TRU_vs_DIS,SST-bow-KERNEL,0.9,1,65.53,96.64,78.10099525189615
0,TRU_vs_DIS,SST-bow-KERNEL,1.0,1,65.01,97.13,77.88850746268658
0,TRU_vs_DIS,MOS-KERNEL,0.0,2,,0.0,
0,TRU_vs_DIS,MOS-KERNEL,0.1,2,84.59,90.77,87.57110287408759
0,TRU_vs_DIS,MOS-KERNEL,0.2,2,82.99,90.5,86.5824543201337
0,TRU_vs_DIS,MOS-KERNEL,0.3,2,76.98,91.18,83.4804519505233
0,TRU_vs_DIS,MOS-KERNEL,0.4,2,71.93,92.47,80.91687469586375
0,TRU_vs_DIS,MOS-KERNEL,0.5,2,68.78,93.55,79.27516786792337
0,TRU_vs_DIS,MOS-KERNEL,0.6,2,66.75,94.73,78.31592147634382
0,TRU_vs_DIS,MOS-KERNEL,0.7,2,65.66,95.52,77.82408735575132
0,TRU_vs_DIS,MOS-KERNEL,0.8,2,64.94,96.35,77.58657077314155
0,TRU_vs_DIS,MOS-KERNEL,0.9,2,64.44,97.03,77.4461286926364
0,TRU_vs_DIS,MOS-KERNEL,1.0,2,64.07,97.66,77.37681568045508
0,TRU_vs_DIS,ST-KERNEL,0.0,2,,0.0,
0,TRU_vs_DIS,ST-KERNEL,0.1,2,84.59,90.77,87.57110287408759
0,TRU_vs_DIS,ST-KERNEL,0.2,2,82.99,90.5,86.5824543201337
0,TRU_vs_DIS,ST-KERNEL,0.3,2,76.98,91.18,83.4804519505233
0,TRU_vs_DIS,ST-KERNEL,0.4,2,71.93,92.47,80.91687469586375
0,TRU_vs_DIS,ST-KERNEL,0.5,2,68.78,93.55,79.27516786792337
0,TRU_vs_DIS,ST-KERNEL,0.6,2,66.75,94.73,78.31592147634382
0,TRU_vs_DIS,ST-KERNEL,0.7,2,65.66,95.52,77.82408735575132
0,TRU_vs_DIS,ST-KERNEL,0.8,2,64.94,96.35,77.58657077314155
0,TRU_vs_DIS,ST-KERNEL,0.9,2,64.44,97.03,77.4461286926364
0,TRU_vs_DIS,ST-KERNEL,1.0,2,64.07,97.66,77.37681568045508
0,TRU_vs_DIS,SST-KERNEL,0.0,2,,0.0,
0,TRU_vs_DIS,SST-KERNEL,0.1,2,84.59,90.77,87.57110287408759
0,TRU_vs_DIS,SST-KERNEL,0.2,2,82.99,90.5,86.5824543201337
0,TRU_vs_DIS,SST-KERNEL,0.3,2,76.98,91.18,83.4804519505233
0,TRU_vs_DIS,SST-KERNEL,0.4,2,71.93,92.47,80.91687469586375
0,TRU_vs_DIS,SST-KERNEL,0.5,2,68.78,93.55,79.27516786792337
0,TRU_vs_DIS,SST-KERNEL,0.6,2,66.75,94.73,78.31592147634382
0,TRU_vs_DIS,SST-KERNEL,0.7,2,65.66,95.52,77.82408735575132
0,TRU_vs_DIS,SST-KERNEL,0.8,2,64.94,96.35,77.58657077314155
0,TRU_vs_DIS,SST-KERNEL,0.9,2,64.44,97.03,77.4461286926364
0,TRU_vs_DIS,SST-KERNEL,1.0,2,64.07,97.66,77.37681568045508
0,TRU_vs_DIS,SST-bow-KERNEL,0.0,2,,0.0,
0,TRU_vs_DIS,SST-bow-KERNEL,0.1,2,84.59,90.77,87.57110287408759
0,TRU_vs_DIS,SST-bow-KERNEL,0.2,2,82.99,90.5,86.5824543201337
0,TRU_vs_DIS,SST-bow-KERNEL,0.3,2,76.98,91.18,83.4804519505233
0,TRU_vs_DIS,SST-bow-KERNEL,0.4,2,71.93,92.47,80.91687469586375
0,TRU_vs_DIS,SST-bow-KERNEL,0.5,2,68.78,93.55,79.27516786792337
0,TRU_vs_DIS,SST-bow-KERNEL,0.6,2,66.75,94.73,78.31592147634382
0,TRU_vs_DIS,SST-bow-KERNEL,0.7,2,65.66,95.52,77.82408735575132
0,TRU_vs_DIS,SST-bow-KERNEL,0.8,2,64.94,96.35,77.58657077314155
0,TRU_vs_DIS,SST-bow-KERNEL,0.9,2,64.44,97.03,77.4461286926364
0,TRU_vs_DIS,SST-bow-KERNEL,1.0,2,64.07,97.66,77.37681568045508
0,TRU_vs_DIS,MOS-KERNEL,0.0,3,,0.0,
0,TRU_vs_DIS,MOS-KERNEL,0.1,3,85.05,88.94,86.95151445485372
0,TRU_vs_DIS,MOS-KERNEL,0.2,3,84.13,87.99,86.0167174064606
0,TRU_vs_DIS,MOS-KERNEL,0.3,3,78.96,89.26,83.79466888598263
0,TRU_vs_DIS,MOS-KERNEL,0.4,3,73.75,91.31,81.59593481158367
0,TRU_vs_DIS,MOS-KERNEL,0.5,3,70.27,93.08,80.08241934496479
0,TRU_vs_DIS,MOS-KERNEL,0.6,3,68.0,94.94,79.24291150116608
0,TRU_vs_DIS,MOS-KERNEL,0.7,3,66.62,95.9,78.6224218557716
0,TRU_vs_DIS,MOS-KERNEL,0.8,3,65.7,96.87,78.29684443624286
0,TRU_vs_DIS,MOS-KERNEL,0.9,3,65.24,97.81,78.27199509352958
0,TRU_vs_DIS,MOS-KERNEL,1.0,3,64.95,98.46,78.26910225812374
0,TRU_vs_DIS,ST-KERNEL,0.0,3,,0.0,
0,TRU_vs_DIS,ST-KERNEL,0.1,3,85.05,88.94,86.95151445485372
0,TRU_vs_DIS,ST-KERNEL,0.2,3,84.13,87.99,86.0167174064606
0,TRU_vs_DIS,ST-KERNEL,0.3,3,78.96,89.26,83.79466888598263
0,TRU_vs_DIS,ST-KERNEL,0.4,3,73.75,91.31,81.59593481158367
0,TRU_vs_DIS,ST-KERNEL,0.5,3,70.27,93.08,80.08241934496479
0,TRU_vs_DIS,ST-KERNEL,0.6,3,68.0,94.94,79.24291150116608
0,TRU_vs_DIS,ST-KERNEL,0.7,3,66.62,95.9,78.6224218557716
0,TRU_vs_DIS,ST-KERNEL,0.8,3,65.7,96.87,78.29684443624286
0,TRU_vs_DIS,ST-KERNEL,0.9,3,65.24,97.81,78.27199509352958
0,TRU_vs_DIS,ST-KERNEL,1.0,3,64.95,98.46,78.26910225812374
0,TRU_vs_DIS,SST-KERNEL,0.0,3,,0.0,
0,TRU_vs_DIS,SST-KERNEL,0.1,3,85.05,88.94,86.95151445485372
0,TRU_vs_DIS,SST-KERNEL,0.2,3,84.13,87.99,86.0167174064606
0,TRU_vs_DIS,SST-KERNEL,0.3,3,78.96,89.26,83.79466888598263
0,TRU_vs_DIS,SST-KERNEL,0.4,3,73.75,91.31,81.59593481158367
0,TRU_vs_DIS,SST-KERNEL,0.5,3,70.27,93.08,80.08241934496479
0,TRU_vs_DIS,SST-KERNEL,0.6,3,68.0,94.94,79.24291150116608
0,TRU_vs_DIS,SST-KERNEL,0.7,3,66.62,95.9,78.6224218557716
0,TRU_vs_DIS,SST-KERNEL,0.8,3,65.7,96.87,78.29684443624286
0,TRU_vs_DIS,SST-KERNEL,0.9,3,65.24,97.81,78.27199509352958
0,TRU_vs_DIS,SST-KERNEL,1.0,3,64.95,98.46,78.26910225812374
0,TRU_vs_DIS,SST-bow-KERNEL,0.0,3,,0.0,
0,TRU_vs_DIS,SST-bow-KERNEL,0.1,3,85.05,88.94,86.95151445485372
0,TRU_vs_DIS,SST-bow-KERNEL,0.2,3,84.13,87.99,86.0167174064606
0,TRU_vs_DIS,SST-bow-KERNEL,0.3,3,78.96,89.26,83.79466888598263
0,TRU_vs_DIS,SST-bow-KERNEL,0.4,3,73.75,91.31,81.59593481158367
0,TRU_vs_DIS,SST-bow-KERNEL,0.5,3,70.27,93.08,80.08241934496479
0,TRU_vs_DIS,SST-bow-KERNEL,0.6,3,68.0,94.94,79.24291150116608
0,TRU_vs_DIS,SST-bow-KERNEL,0.7,3,66.62,95.9,78.6224218557716
0,TRU_vs_DIS,SST-bow-KERNEL,0.8,3,65.7,96.87,78.29684443624286
0,TRU_vs_DIS,SST-bow-KERNEL,0.9,3,65.24,97.81,78.27199509352958
0,TRU_vs_DIS,SST-bow-KERNEL,1.0,3,64.95,98.46,78.26910225812374
0,ANG_vs_FEA,MOS-KERNEL,0.0,1,,0.0,
0,ANG_vs_FEA,MOS-KERNEL,0.1,1,87.17,99.97,93.13225285882228
0,ANG_vs_FEA,MOS-KERNEL,0.2,1,87.14,99.96,93.11078995189739
0,ANG_vs_FEA,MOS-KERNEL,0.3,1,87.13,99.96,93.10508097706986
0,ANG_vs_FEA,MOS-KERNEL,0.4,1,87.13,99.97,93.10941849278461
0,ANG_vs_FEA,MOS-KERNEL,0.5,1,87.13,99.97,93.10941849278461
0,ANG_vs_FEA,MOS-KERNEL,0.6,1,87.12,99.99,93.11238095238095
0,ANG_vs_FEA,MOS-KERNEL,0.7,1,87.09,100.0,93.09957774333209
0,ANG_vs_FEA,MOS-KERNEL,0.8,1,87.09,100.0,93.09957774333209
0,ANG_vs_FEA,MOS-KERNEL,0.9,1,87.09,100.0,93.09957774333209
0,ANG_vs_FEA,MOS-KERNEL,1.0,1,87.09,100.0,93.09957774333209
0,ANG_vs_FEA,ST-KERNEL,0.0,1,,0.0,
0,ANG_vs_FEA,ST-KERNEL,0.1,1,87.17,99.97,93.13225285882228
0,ANG_vs_FEA,ST-KERNEL,0.2,1,87.14,99.96,93.11078995189739
0,ANG_vs_FEA,ST-KERNEL,0.3,1,87.13,99.96,93.10508097706986
0,ANG_vs_FEA,ST-KERNEL,0.4,1,87.13,99.97,93.10941849278461
0,ANG_vs_FEA,ST-KERNEL,0.5,1,87.13,99.97,93.10941849278461
0,ANG_vs_FEA,ST-KERNEL,0.6,1,87.12,99.99,93.11238095238095
0,ANG_vs_FEA,ST-KERNEL,0.7,1,87.09,100.0,93.09957774333209
0,ANG_vs_FEA,ST-KERNEL,0.8,1,87.09,100.0,93.09957774333209
0,ANG_vs_FEA,ST-KERNEL,0.9,1,87.09,100.0,93.09957774333209
0,ANG_vs_FEA,ST-KERNEL,1.0,1,87.09,100.0,93.09957774333209
0,ANG_vs_FEA,SST-KERNEL,0.0,1,,0.0,
0,ANG_vs_FEA,SST-KERNEL,0.1,1,87.17,99.97,93.13225285882228
0,ANG_vs_FEA,SST-KERNEL,0.2,1,87.14,99.96,93.11078995189739
0,ANG_vs_FEA,SST-KERNEL,0.3,1,87.13,99.96,93.10508097706986
0,ANG_vs_FEA,SST-KERNEL,0.4,1,87.13,99.97,93.10941849278461
0,ANG_vs_FEA,SST-KERNEL,0.5,1,87.13,99.97,93.10941849278461
0,ANG_vs_FEA,SST-KERNEL,0.6,1,87.12,99.99,93.11238095238095
0,ANG_vs_FEA,SST-KERNEL,0.7,1,87.09,100.0,93.09957774333209
0,ANG_vs_FEA,SST-KERNEL,0.8,1,87.09,100.0,93.09957774333209
0,ANG_vs_FEA,SST-KERNEL,0.9,1,87.09,100.0,93.09957774333209
0,ANG_vs_FEA,SST-KERNEL,1.0,1,87.09,100.0,93.09957774333209
0,ANG_vs_FEA,SST-bow-KERNEL,0.0,1,,0.0,
0,ANG_vs_FEA,SST-bow-KERNEL,0.1,1,87.17,99.97,93.13225285882228
0,ANG_vs_FEA,SST-bow-KERNEL,0.2,1,87.14,99.96,93.11078995189739
0,ANG_vs_FEA,SST-bow-KERNEL,0.3,1,87.13,99.96,93.10508097706986
0,ANG_vs_FEA,SST-bow-KERNEL,0.4,1,87.13,99.97,93.10941849278461
0,ANG_vs_FEA,SST-bow-KERNEL,0.5,1,87.13,99.97,93.10941849278461
0,ANG_vs_FEA,SST-bow-KERNEL,0.6,1,87.12,99.99,93.11238095238095
0,ANG_vs_FEA,SST-bow-KERNEL,0.7,1,87.09,100.0,93.09957774333209
0,ANG_vs_FEA,SST-bow-KERNEL,0.8,1,87.09,100.0,93.09957774333209
0,ANG_vs_FEA,SST-bow-KERNEL,0.9,1,87.09,100.0,93.09957774333209
0,ANG_vs_FEA,SST-bow-KERNEL,1.0,1,87.09,100.0,93.09957774333209
0,ANG_vs_FEA,MOS-KERNEL,0.0,2,,0.0,
0,ANG_vs_FEA,MOS-KERNEL,0.1,2,87.38,100.0,93.26502294802007
0,ANG_vs_FEA,MOS-KERNEL,0.2,2,87.38,100.0,93.26502294802007
0,ANG_vs_FEA,MOS-KERNEL,0.3,2,87.34,100.0,93.24223337247784
0,ANG_vs_FEA,MOS-KERNEL,0.4,2,87.34,100.0,93.24223337247784
0,ANG_vs_FEA,MOS-KERNEL,0.5,2,87.34,100.0,93.24223337247784
0,ANG_vs_FEA,MOS-KERNEL,0.6,2,87.34,100.0,93.24223337247784
0,ANG_vs_FEA,MOS-KERNEL,0.7,2,87.34,100.0,93.24223337247784
0,ANG_vs_FEA,MOS-KERNEL,0.8,2,87.34,100.0,93.24223337247784
0,ANG_vs_FEA,MOS-KERNEL,0.9,2,87.34,100.0,93.24223337247784
0,ANG_vs_FEA,MOS-KERNEL,1.0,2,87.34,100.0,93.24223337247784
0,ANG_vs_FEA,ST-KERNEL,0.0,2,,0.0,
0,ANG_vs_FEA,ST-KERNEL,0.1,2,87.38,100.0,93.26502294802007
0,ANG_vs_FEA,ST-KERNEL,0.2,2,87.38,100.0,93.26502294802007
0,ANG_vs_FEA,ST-KERNEL,0.3,2,87.34,100.0,93.24223337247784
0,ANG_vs_FEA,ST-KERNEL,0.4,2,87.34,100.0,93.24223337247784
0,ANG_vs_FEA,ST-KERNEL,0.5,2,87.34,100.0,93.24223337247784
0,ANG_vs_FEA,ST-KERNEL,0.6,2,87.34,100.0,93.24223337247784
0,ANG_vs_FEA,ST-KERNEL,0.7,2,87.34,100.0,93.24223337247784
0,ANG_vs_FEA,ST-KERNEL,0.8,2,87.34,100.0,93.24223337247784
0,ANG_vs_FEA,ST-KERNEL,0.9,2,87.34,100.0,93.24223337247784
0,ANG_vs_FEA,ST-KERNEL,1.0,2,87.34,100.0,93.24223337247784
0,ANG_vs_FEA,SST-KERNEL,0.0,2,,0.0,
0,ANG_vs_FEA,SST-KERNEL,0.1,2,87.38,100.0,93.26502294802007
0,ANG_vs_FEA,SST-KERNEL,0.2,2,87.38,100.0,93.26502294802007
0,ANG_vs_FEA,SST-KERNEL,0.3,2,87.34,100.0,93.24223337247784
0,ANG_vs_FEA,SST-KERNEL,0.4,2,87.34,100.0,93.24223337247784
0,ANG_vs_FEA,SST-KERNEL,0.5,2,87.34,100.0,93.24223337247784
0,ANG_vs_FEA,SST-KERNEL,0.6,2,87.34,100.0,93.24223337247784
0,ANG_vs_FEA,SST-KERNEL,0.7,2,87.34,100.0,93.24223337247784
0,ANG_vs_FEA,SST-KERNEL,0.8,2,87.34,100.0,93.24223337247784
0,ANG_vs_FEA,SST-KERNEL,0.9,2,87.34,100.0,93.24223337247784
0,ANG_vs_FEA,SST-KERNEL,1.0,2,87.34,100.0,93.24223337247784
0,ANG_vs_FEA,SST-bow-KERNEL,0.0,2,,0.0,
0,ANG_vs_FEA,SST-bow-KERNEL,0.1,2,87.38,100.0,93.26502294802007
0,ANG_vs_FEA,SST-bow-KERNEL,0.2,2,87.38,100.0,93.26502294802007
0,ANG_vs_FEA,SST-bow-KERNEL,0.3,2,87.34,100.0,93.24223337247784
0,ANG_vs_FEA,SST-bow-KERNEL,0.4,2,87.34,100.0,93.24223337247784
0,ANG_vs_FEA,SST-bow-KERNEL,0.5,2,87.34,100.0,93.24223337247784
0,ANG_vs_FEA,SST-bow-KERNEL,0.6,2,87.34,100.0,93.24223337247784
0,ANG_vs_FEA,SST-bow-KERNEL,0.7,2,87.34,100.0,93.24223337247784
0,ANG_vs_FEA,SST-bow-KERNEL,0.8,2,87.34,100.0,93.24223337247784
0,ANG_vs_FEA,SST-bow-KERNEL,0.9,2,87.34,100.0,93.24223337247784
0,ANG_vs_FEA,SST-bow-KERNEL,1.0,2,87.34,100.0,93.24223337247784
0,ANG_vs_FEA,MOS-KERNEL,0.0,3,,0.0,
0,ANG_vs_FEA,MOS-KERNEL,0.1,3,87.08,99.99,93.08953012241406
0,ANG_vs_FEA,MOS-KERNEL,0.2,3,87.06,99.99,93.078101042502
0,ANG_vs_FEA,MOS-KERNEL,0.3,3,87.05,99.99,93.0723855859709
0,ANG_vs_FEA,MOS-KERNEL,0.4,3,87.03,99.99,93.06095283926854
0,ANG_vs_FEA,MOS-KERNEL,0.5,3,87.02,99.99,93.05523554890112
0,ANG_vs_FEA,MOS-KERNEL,0.6,3,87.02,99.99,93.05523554890112
0,ANG_vs_FEA,MOS-KERNEL,0.7,3,87.02,99.99,93.05523554890112
0,ANG_vs_FEA,MOS-KERNEL,0.8,3,87.02,99.99,93.05523554890112
0,ANG_vs_FEA,MOS-KERNEL,0.9,3,87.02,99.99,93.05523554890112
0,ANG_vs_FEA,MOS-KERNEL,1.0,3,87.02,99.99,93.05523554890112
0,ANG_vs_FEA,ST-KERNEL,0.0,3,,0.0,
0,ANG_vs_FEA,ST-KERNEL,0.1,3,87.08,99.99,93.08953012241406
0,ANG_vs_FEA,ST-KERNEL,0.2,3,87.06,99.99,93.078101042502
0,ANG_vs_FEA,ST-KERNEL,0.3,3,87.05,99.99,93.0723855859709
0,ANG_vs_FEA,ST-KERNEL,0.4,3,87.03,99.99,93.06095283926854
0,ANG_vs_FEA,ST-KERNEL,0.5,3,87.02,99.99,93.05523554890112
0,ANG_vs_FEA,ST-KERNEL,0.6,3,87.02,99.99,93.05523554890112
0,ANG_vs_FEA,ST-KERNEL,0.7,3,87.02,99.99,93.05523554890112
0,ANG_vs_FEA,ST-KERNEL,0.8,3,87.02,99.99,93.05523554890112
0,ANG_vs_FEA,ST-KERNEL,0.9,3,87.02,99.99,93.05523554890112
0,ANG_vs_FEA,ST-KERNEL,1.0,3,87.02,99.99,93.05523554890112
0,ANG_vs_FEA,SST-KERNEL,0.0,3,,0.0,
0,ANG_vs_FEA,SST-KERNEL,0.1,3,87.08,99.99,93.08953012241406
0,ANG_vs_FEA,SST-KERNEL,0.2,3,87.06,99.99,93.078101042502
0,ANG_vs_FEA,SST-KERNEL,0.3,3,87.05,99.99,93.0723855859709
0,ANG_vs_FEA,SST-KERNEL,0.4,3,87.03,99.99,93.06095283926854
0,ANG_vs_FEA,SST-KERNEL,0.5,3,87.02,99.99,93.05523554890112
0,ANG_vs_FEA,SST-KERNEL,0.6,3,87.02,99.99,93.05523554890112
0,ANG_vs_FEA,SST-KERNEL,0.7,3,87.02,99.99,93.05523554890112
0,ANG_vs_FEA,SST-KERNEL,0.8,3,87.02,99.99,93.05523554890112
0,ANG_vs_FEA,SST-KERNEL,0.9,3,87.02,99.99,93.05523554890112
0,ANG_vs_FEA,SST-KERNEL,1.0,3,87.02,99.99,93.05523554890112
0,ANG_vs_FEA,SST-bow-KERNEL,0.0,3,,0.0,
0,ANG_vs_FEA,SST-bow-KERNEL,0.1,3,87.08,99.99,93.08953012241406
0,ANG_vs_FEA,SST-bow-KERNEL,0.2,3,87.06,99.99,93.078101042502
0,ANG_vs_FEA,SST-bow-KERNEL,0.3,3,87.05,99.99,93.0723855859709
0,ANG_vs_FEA,SST-bow-KERNEL,0.4,3,87.03,99.99,93.06095283926854
0,ANG_vs_FEA,SST-bow-KERNEL,0.5,3,87.02,99.99,93.05523554890112
0,ANG_vs_FEA,SST-bow-KERNEL,0.6,3,87.02,99.99,93.05523554890112
0,ANG_vs_FEA,SST-bow-KERNEL,0.7,3,87.02,99.99,93.05523554890112
0,ANG_vs_FEA,SST-bow-KERNEL,0.8,3,87.02,99.99,93.05523554890112
0,ANG_vs_FEA,SST-bow-KERNEL,0.9,3,87.02,99.99,93.05523554890112
0,ANG_vs_FEA,SST-bow-KERNEL,1.0,3,87.02,99.99,93.05523554890112
0,ANT_vs_SUR,MOS-KERNEL,0.0,1,,0.0,
0,ANT_vs_SUR,MOS-KERNEL,0.1,1,92.8,99.48,96.02396505096735
0,ANT_vs_SUR,MOS-KERNEL,0.2,1,89.74,99.51,94.37281268163805
0,ANT_vs_SUR,MOS-KERNEL,0.3,1,85.12,99.78,91.86883288263927
0,ANT_vs_SUR,MOS-KERNEL,0.4,1,84.52,99.96,91.59387684301821
0,ANT_vs_SUR,MOS-KERNEL,0.5,1,83.73,100.0,91.14461437979644
0,ANT_vs_SUR,MOS-KERNEL,0.6,1,82.72,100.0,90.54290718038528
0,ANT_vs_SUR,MOS-KERNEL,0.7,1,82.72,100.0,90.54290718038528
0,ANT_vs_SUR,MOS-KERNEL,0.8,1,82.72,100.0,90.54290718038528
0,ANT_vs_SUR,MOS-KERNEL,0.9,1,82.72,100.0,90.54290718038528
0,ANT_vs_SUR,MOS-KERNEL,1.0,1,82.62,100.0,90.48297010185084
0,ANT_vs_SUR,ST-KERNEL,0.0,1,,0.0,
0,ANT_vs_SUR,ST-KERNEL,0.1,1,92.8,99.48,96.02396505096735
0,ANT_vs_SUR,ST-KERNEL,0.2,1,89.74,99.51,94.37281268163805
0,ANT_vs_SUR,ST-KERNEL,0.3,1,85.12,99.78,91.86883288263927
0,ANT_vs_SUR,ST-KERNEL,0.4,1,84.52,99.96,91.59387684301821
0,ANT_vs_SUR,ST-KERNEL,0.5,1,83.73,100.0,91.14461437979644
0,ANT_vs_SUR,ST-KERNEL,0.6,1,82.72,100.0,90.54290718038528
0,ANT_vs_SUR,ST-KERNEL,0.7,1,82.72,100.0,90.54290718038528
0,ANT_vs_SUR,ST-KERNEL,0.8,1,82.72,100.0,90.54290718038528
0,ANT_vs_SUR,ST-KERNEL,0.9,1,82.72,100.0,90.54290718038528
0,ANT_vs_SUR,ST-KERNEL,1.0,1,82.62,100.0,90.48297010185084
0,ANT_vs_SUR,SST-KERNEL,0.0,1,,0.0,
0,ANT_vs_SUR,SST-KERNEL,0.1,1,92.8,99.48,96.02396505096735
0,ANT_vs_SUR,SST-KERNEL,0.2,1,89.74,99.51,94.37281268163805
0,ANT_vs_SUR,SST-KERNEL,0.3,1,85.12,99.78,91.86883288263927
0,ANT_vs_SUR,SST-KERNEL,0.4,1,84.52,99.96,91.59387684301821
0,ANT_vs_SUR,SST-KERNEL,0.5,1,83.73,100.0,91.14461437979644
0,ANT_vs_SUR,SST-KERNEL,0.6,1,82.72,100.0,90.54290718038528
0,ANT_vs_SUR,SST-KERNEL,0.7,1,82.72,100.0,90.54290718038528
0,ANT_vs_SUR,SST-KERNEL,0.8,1,82.72,100.0,90.54290718038528
0,ANT_vs_SUR,SST-KERNEL,0.9,1,82.72,100.0,90.54290718038528
0,ANT_vs_SUR,SST-KERNEL,1.0,1,82.62,100.0,90.48297010185084
0,ANT_vs_SUR,SST-bow-KERNEL,0.0,1,,0.0,
0,ANT_vs_SUR,SST-bow-KERNEL,0.1,1,92.8,99.48,96.02396505096735
0,ANT_vs_SUR,SST-bow-KERNEL,0.2,1,89.74,99.51,94.37281268163805
0,ANT_vs_SUR,SST-bow-KERNEL,0.3,1,85.12,99.78,91.86883288263927
0,ANT_vs_SUR,SST-bow-KERNEL,0.4,1,84.52,99.96,91.59387684301821
0,ANT_vs_SUR,SST-bow-KERNEL,0.5,1,83.73,100.0,91.14461437979644
0,ANT_vs_SUR,SST-bow-KERNEL,0.6,1,82.72,100.0,90.54290718038528
0,ANT_vs_SUR,SST-bow-KERNEL,0.7,1,82.72,100.0,90.54290718038528
0,ANT_vs_SUR,SST-bow-KERNEL,0.8,1,82.72,100.0,90.54290718038528
0,ANT_vs_SUR,SST-bow-KERNEL,0.9,1,82.72,100.0,90.54290718038528
0,ANT_vs_SUR,SST-bow-KERNEL,1.0,1,82.62,100.0,90.48297010185084
0,ANT_vs_SUR,MOS-KERNEL,0.0,2,,0.0,
0,ANT_vs_SUR,MOS-KERNEL,0.1,2,92.56,99.33,95.82557506904999
0,ANT_vs_SUR,MOS-KERNEL,0.2,2,90.09,99.52,94.57050577501185
0,ANT_vs_SUR,MOS-KERNEL,0.3,2,85.52,99.78,92.10130167296275
0,ANT_vs_SUR,MOS-KERNEL,0.4,2,84.82,99.96,91.76974997294079
0,ANT_vs_SUR,MOS-KERNEL,0.5,2,83.82,100.0,91.1979109998912
0,ANT_vs_SUR,MOS-KERNEL,0.6,2,83.12,100.0,90.782000873744
0,ANT_vs_SUR,MOS-KERNEL,0.7,2,83.07,100.0,90.7521713005954
0,ANT_vs_SUR,MOS-KERNEL,0.8,2,82.94,100.0,90.67453809992347
0,ANT_vs_SUR,MOS-KERNEL,0.9,2,82.94,100.0,90.67453809992347
0,ANT_vs_SUR,MOS-KERNEL,1.0,2,82.94,100.0,90.67453809992347
0,ANT_vs_SUR,ST-KERNEL,0.0,2,,0.0,
0,ANT_vs_SUR,ST-KERNEL,0.1,2,92.56,99.33,95.82557506904999
0,ANT_vs_SUR,ST-KERNEL,0.2,2,90.09,99.52,94.57050577501185
0,ANT_vs_SUR,ST-KERNEL,0.3,2,85.52,99.78,92.10130167296275
0,ANT_vs_SUR,ST-KERNEL,0.4,2,84.82,99.96,91.76974997294079
0,ANT_vs_SUR,ST-KERNEL,0.5,2,83.82,100.0,91.1979109998912
0,ANT_vs_SUR,ST-KERNEL,0.6,2,83.12,100.0,90.782000873744
0,ANT_vs_SUR,ST-KERNEL,0.7,2,83.07,100.0,90.7521713005954
0,ANT_vs_SUR,ST-KERNEL,0.8,2,82.94,100.0,90.67453809992347
0,ANT_vs_SUR,ST-KERNEL,0.9,2,82.94,100.0,90.67453809992347
0,ANT_vs_SUR,ST-KERNEL,1.0,2,82.94,100.0,90.67453809992347
0,ANT_vs_SUR,SST-KERNEL,0.0,2,,0.0,
0,ANT_vs_SUR,SST-KERNEL,0.1,2,92.56,99.33,95.82557506904999
0,ANT_vs_SUR,SST-KERNEL,0.2,2,90.09,99.52,94.57050577501185
0,ANT_vs_SUR,SST-KERNEL,0.3,2,85.52,99.78,92.10130167296275
0,ANT_vs_SUR,SST-KERNEL,0.4,2,84.82,99.96,91.76974997294079
0,ANT_vs_SUR,SST-KERNEL,0.5,2,83.82,100.0,91.1979109998912
0,ANT_vs_SUR,SST-KERNEL,0.6,2,83.12,100.0,90.782000873744
0,ANT_vs_SUR,SST-KERNEL,0.7,2,83.07,100.0,90.7521713005954
0,ANT_vs_SUR,SST-KERNEL,0.8,2,82.94,100.0,90.67453809992347
0,ANT_vs_SUR,SST-KERNEL,0.9,2,82.94,100.0,90.67453809992347
0,ANT_vs_SUR,SST-KERNEL,1.0,2,82.94,100.0,90.67453809992347
0,ANT_vs_SUR,SST-bow-KERNEL,0.0,2,,0.0,
0,ANT_vs_SUR,SST-bow-KERNEL,0.1,2,92.56,99.33,95.82557506904999
0,ANT_vs_SUR,SST-bow-KERNEL,0.2,2,90.09,99.52,94.57050577501185
0,ANT_vs_SUR,SST-bow-KERNEL,0.3,2,85.52,99.78,92.10130167296275
0,ANT_vs_SUR,SST-bow-KERNEL,0.4,2,84.82,99.96,91.76974997294079
0,ANT_vs_SUR,SST-bow-KERNEL,0.5,2,83.82,100.0,91.1979109998912
0,ANT_vs_SUR,SST-bow-KERNEL,0.6,2,83.12,100.0,90.782000873744
0,ANT_vs_SUR,SST-bow-KERNEL,0.7,2,83.07,100.0,90.7521713005954
0,ANT_vs_SUR,SST-bow-KERNEL,0.8,2,82.94,100.0,90.67453809992347
0,ANT_vs_SUR,SST-bow-KERNEL,0.9,2,82.94,100.0,90.67453809992347
0,ANT_vs_SUR,SST-bow-KERNEL,1.0,2,82.94,100.0,90.67453809992347
0,ANT_vs_SUR,MOS-KERNEL,0.0,3,,0.0,
0,ANT_vs_SUR,MOS-KERNEL,0.1,3,92.71,99.14,95.81724680740162
0,ANT_vs_SUR,MOS-KERNEL,0.2,3,90.36,99.37,94.65106414378327
0,ANT_vs_SUR,MOS-KERNEL,0.3,3,85.75,99.7,92.2003235373416
0,ANT_vs_SUR,MOS-KERNEL,0.4,3,84.38,99.96,91.51160681349681
0,ANT_vs_SUR,MOS-KERNEL,0.5,3,83.18,100.0,90.81777486625177
0,ANT_vs_SUR,MOS-KERNEL,0.6,3,82.64,100.0,90.49496276828735
0,ANT_vs_SUR,MOS-KERNEL,0.7,3,82.46,100.0,90.38693412254742
0,ANT_vs_SUR,MOS-KERNEL,0.8,3,82.46,100.0,90.38693412254742
0,ANT_vs_SUR,MOS-KERNEL,0.9,3,82.46,100.0,90.38693412254742
0,ANT_vs_SUR,MOS-KERNEL,1.0,3,82.46,100.0,90.38693412254742
0,ANT_vs_SUR,ST-KERNEL,0.0,3,,0.0,
0,ANT_vs_SUR,ST-KERNEL,0.1,3,92.71,99.14,95.81724680740162
0,ANT_vs_SUR,ST-KERNEL,0.2,3,90.36,99.37,94.65106414378327
0,ANT_vs_SUR,ST-KERNEL,0.3,3,85.75,99.7,92.2003235373416
0,ANT_vs_SUR,ST-KERNEL,0.4,3,84.38,99.96,91.51160681349681
0,ANT_vs_SUR,ST-KERNEL,0.5,3,83.18,100.0,90.81777486625177
0,ANT_vs_SUR,ST-KERNEL,0.6,3,82.64,100.0,90.49496276828735
0,ANT_vs_SUR,ST-KERNEL,0.7,3,82.46,100.0,90.38693412254742
0,ANT_vs_SUR,ST-KERNEL,0.8,3,82.46,100.0,90.38693412254742
0,ANT_vs_SUR,ST-KERNEL,0.9,3,82.46,100.0,90.38693412254742
0,ANT_vs_SUR,ST-KERNEL,1.0,3,82.46,100.0,90.38693412254742
0,ANT_vs_SUR,SST-KERNEL,0.0,3,,0.0,
0,ANT_vs_SUR,SST-KERNEL,0.1,3,92.71,99.14,95.81724680740162
0,ANT_vs_SUR,SST-KERNEL,0.2,3,90.36,99.37,94.65106414378327
0,ANT_vs_SUR,SST-KERNEL,0.3,3,85.75,99.7,92.2003235373416
0,ANT_vs_SUR,SST-KERNEL,0.4,3,84.38,99.96,91.51160681349681
0,ANT_vs_SUR,SST-KERNEL,0.5,3,83.18,100.0,90.81777486625177
0,ANT_vs_SUR,SST-KERNEL,0.6,3,82.64,100.0,90.49496276828735
0,ANT_vs_SUR,SST-KERNEL,0.7,3,82.46,100.0,90.38693412254742
0,ANT_vs_SUR,SST-KERNEL,0.8,3,82.46,100.0,90.38693412254742
0,ANT_vs_SUR,SST-KERNEL,0.9,3,82.46,100.0,90.38693412254742
0,ANT_vs_SUR,SST-KERNEL,1.0,3,82.46,100.0,90.38693412254742
0,ANT_vs_SUR,SST-bow-KERNEL,0.0,3,,0.0,
0,ANT_vs_SUR,SST-bow-KERNEL,0.1,3,92.71,99.14,95.81724680740162
0,ANT_vs_SUR,SST-bow-KERNEL,0.2,3,90.36,99.37,94.65106414378327
0,ANT_vs_SUR,SST-bow-KERNEL,0.3,3,85.75,99.7,92.2003235373416
0,ANT_vs_SUR,SST-bow-KERNEL,0.4,3,84.38,99.96,91.51160681349681
0,ANT_vs_SUR,SST-bow-KERNEL,0.5,3,83.18,100.0,90.81777486625177
0,ANT_vs_SUR,SST-bow-KERNEL,0.6,3,82.64,100.0,90.49496276828735
0,ANT_vs_SUR,SST-bow-KERNEL,0.7,3,82.46,100.0,90.38693412254742
0,ANT_vs_SUR,SST-bow-KERNEL,0.8,3,82.46,100.0,90.38693412254742
0,ANT_vs_SUR,SST-bow-KERNEL,0.9,3,82.46,100.0,90.38693412254742
0,ANT_vs_SUR,SST-bow-KERNEL,1.0,3,82.46,100.0,90.38693412254742
