-0.22950155
0.6198991
1.2384371
1.1851765
1.9230842
1.0491754
1.6290086
1.6192823
0.74746881
0.95300837
1.0180013
-0.10829012
1.0934863
0.84705682
1.0491515
1.0985874
1.5657171
-0.57382865
0.93782833
0.40238479
1.3315129
-0.90507145
1.7044514
1.4222686
1.3969429
0.96609948
1.7737752
-1.2213377
-1.2213377
-1.2213377
-1.2213377
-1.2213377
-1.2213377
-1.2213377
-1.2213377
0.067748576
-0.41742847
0.46665412
1.076061
1.4161947
0.40861549
0.97151141
0.96312153
1.3076225
0.54593389
0.96664667
1.4858485
-1.1415404
1.8062727
1.5007592
0.7548558
0.93420904
-0.21536088
0.65075864
1.2961591
0.89483235
-0.97873139
0.83299646
0.81990085
0.99012575
-0.13508811
0.58852144
1.4976661
1.1628816
1.1008256
2.0042508
1.4802192
0.66267935
0.25136582
0.92328356
1.2995365
0.88499775
0.71849559
0.89849193
0.91076712
1.2132297
-0.072463998
0.81450045
0.72768971
1.6720663
0.47002421
1.0447752
0.79461356
1.12634
0.78212527
0.86201958
-0.24077943
1.7495791
1.3045906
1.0505086
1.0801172
0.67992045
0.86430379
1.6007102
0.95757285
1.1340852
1.1054778
0.8051864
1.4584475
1.0960969
0.92587608
0.8278523
1.7550738
0.59987162
1.8336436
1.2160265
0.74052854
1.1503248
0.29613883
0.87454106
1.6237566
1.343684
1.2621659
1.3074358
0.84830027
0.93630692
2.1198079
1.6087333
1.430238
1.1727237
1.5600033
0.96095289
-1.0465272
1.2802985
1.8195604
1.5258668
1.0369764
1.9328412
1.07845
0.51183323
0.73085743
0.7546147
-1.1504462
1.4019988
1.007567
1.1897414
0.59822497
0.30529129
1.0608658
1.8182108
-1.2117446
0.056433656
0.57538095
1.1177981
0.26294739
1.3163916
0.81310917
0.77016836
1.0758939
1.7608914
0.98576665
1.3126402
0.41120165
0.54907748
0.88628583
0.22352135
1.4777564
0.51561564
0.99692365
-0.76142576
0.66449141
0.10920678
1.0238954
-0.90507145
-0.90507145
1.4905195
1.3039378
1.1861877
-1.5467314
1.2074458
1.4206688
1.2576184
0.91688001
1.3578529
1.6681771
1.4438473
1.0555257
1.8452769
0.70929741
1.2565002
0.32191889
1.343783
-1.2775043
1.1824472
1.2342598
0.93240981
1.9789615
1.5154758
1.0957578
1.0504548
-0.97966375
-0.97966375
-0.97966375
-0.97966375
-0.97966375
-0.97966375
-0.97966375
-0.97966375
-0.97966375
-0.97966375
-0.97966375
-0.97966375
-0.97966375
-0.97966375
-0.97966375
-0.97966375
-0.97966375
-0.97966375
-0.97966375
-0.97966375
-0.97966375
-0.97966375
-0.97966375
-0.97966375
-0.88572977
1.6635379
0.92891139
-1.3832069
1.2768416
0.76148317
0.76148317
0.87723326
0.39779423
0.89292464
0.21704106
0.49899153
1.5489458
1.3953756
1.1888966
1.218552
1.4075994
1.3252435
1.342286
1.7054753
0.82543255
0.45028824
0.35018655
0.27453253
1.2639708
1.2165612
0.47583067
1.3039807
0.6734044
1.264098
1.8968121
1.0600911
1.5095581
0.92845809
0.75642062
1.1634573
0.99123206
0.81311346
0.73517791
0.23521366
1.6417696
1.3004979
1.095655
0.92076475
0.56442731
1.558806
1.1321664
0.21653228
0.83458864
1.6249706
-1.0922446
0.7749547
1.5908929
1.2468366
-0.84766066
-0.90328227
-0.90328227
-0.90328227
-0.90328227
-0.90328227
-0.90328227
-0.59366486
1.1107634
0.96667809
0.69743505
2.1815006
0.96656666
1.6090256
0.061856242
1.2354873
0.18520935
0.24167932
0.67812151
0.8621384
1.2495444
1.2740855
1.1053621
1.9943321
1.0295588
0.98138167
0.70479893
0.6313448
0.61800312
0.43835957
1.6349586
-0.16880307
0.63547054
0.76029432
-0.77289156
-0.13758774
0.43677459
-0.95893136
-0.95893136
1.2177956
1.2129034
-0.85031602
1.2054256
0.70395556
1.1463716
0.79603519
1.2130327
-1.202843
1.2468827
0.75367627
1.2184835
1.2665445
-0.87624639
-0.87624639
-0.87624639
-0.87624639
-0.87624639
1.6016025
2.1904658
1.4517374
-0.67424248
1.1600933
0.9147668
0.70007853
0.86327373
1.6014351
1.7117645
0.85260661
0.79087604
0.91221105
0.18436645
0.87192921
0.78265967
0.73742416
1.1893743
1.0259415
1.292906
0.96663015
0.96663015
0.74181363
0.90362616
0.36568026
0.88609166
0.7741714
0.82299788
2.4482935
1.429249
-0.90328227
-0.90328227
-0.90328227
-0.90328227
-0.90328227
-0.90328227
-0.90328227
-0.90328227
-0.90328227
-0.90328227
-0.90328227
-0.90328227
-0.90328227
-0.90328227
1.6225235
1.5974254
0.47683878
0.99280274
0.94893481
1.2971746
0.30006341
1.0235691
-0.85302811
1.0682539
0.94433199
-0.33356559
1.3336596
-0.97066933
-0.97066933
-0.97066933
-0.97066933
-0.97066933
-0.97066933
-0.97066933
-0.97066933
-0.97066933
-0.97066933
-0.97066933
-0.97066933
-0.97066933
-0.97066933
-0.97066933
-0.97066933
-0.97066933
0.26978104
1.1662765
0.85304551
-0.3492522
1.4979695
0.50897466
0.5174662
1.138489
1.2488649
0.96650043
0.27649424
1.0147853
1.2366048
0.93691116
-1.0876956
1.2148179
0.90261311
0.15073979
1.2209334
1.1739786
0.29904948
1.2292432
1.2741271
1.2669941
1.653468
-0.10141984
0.76606604
-0.0676263
0.94631556
0.84588293
0.21038606
0.88867684
1.0041938
0.50290449
1.0675891
1.2654904
0.67378718
1.483501
0.83572914
0.49036121
0.64913131
1.1314716
1.3530799
1.411952
0.99028495
1.4220325
0.15674607
0.78904481
1.4172917
1.3597351
0.78765883
1.3835083
0.64438932
0.8656541
0.69761116
1.0164034
1.1496144
0.87293094
-0.59035277
1.3180508
1.2539265
-0.61920683
1.6481034
-1.2556692
1.5840746
-1.0131828
0.88166313
1.4222378
0.76804505
0.21928796
1.1013097
0.45974572
0.86789954
1.4733402
1.4173618
1.2497286
0.85999996
0.95679625
-0.51561823
0.57618288
0.86896141
1.0624156
0.80857055
1.3144368
1.0615299
1.3971996
0.76381432
0.9220472
1.3959242
0.89500729
1.0771138
0.84673266
1.8708262
1.2344974
0.92900645
1.7175445
1.7506194
0.23885843
0.96499788
1.1294654
0.86092797
1.5149086
1.0917528
0.56770768
1.2282342
1.6093439
1.2896603
0.81411009
0.81411009
0.95143339
0.85141938
1.4705762
0.97692553
1.1523616
0.55751129
0.92045281
1.2254685
1.3295182
0.10561975
-1.1148116
0.079694681
1.5259402
1.4801263
-0.66124542
2.0070994
0.89487275
1.5971252
0.42940643
1.5355563
0.65996797
0.87918592
1.4477213
1.0254
1.1181551
0.98638519
1.3254787
-0.48307511
1.0174412
1.7945746
0.66944781
1.1767476
0.33253563
1.1860282
1.2784949
0.63005028
0.78595604
1.4374988
-0.2122518
-0.48363335
1.7914886
0.90756006
1.1676489
-1.120153
1.3963975
0.53739347
0.9421621
0.99670829
1.2300576
0.75866176
-0.77132387
0.79730757
1.2114129
0.66551113
1.3710461
0.87226581
-0.35223942
1.0575939
1.1831789
1.1796222
1.1358087
1.6186997
0.30544579
0.5449823
-0.50292806
0.96725993
0.98495182
1.1106322
0.65484184
0.85160251
1.3819528
1.0727066
0.61246199
1.1990932
1.7000482
-0.8264828
1.1382501
1.4402816
0.28205226
0.98218916
1.0210518
0.50998452
-0.95893136
-0.95893136
-0.95893136
0.21812872
0.10187863
1.0049586
1.0703802
1.5466322
1.1214533
0.78784705
1.4527187
1.1671555
0.52226193
0.98865364
1.1863596
1.4771783
1.6704028
0.49230058
-1.0306076
1.0541291
0.29088724
1.8209493
1.4002013
1.4478108
-0.93959187
0.85321381
-0.78495592
-1.3418149
1.6549875
1.9109557
0.98246578
0.3732999
1.3047976
1.4918001
0.91342608
0.3344252
0.84462719
-0.052039595
0.05509739
1.0323295
1.5900601
1.0113908
-0.419009
1.2734604
1.4708256
1.4979695
1.0482112
1.0482112
0.98354516
-0.86475959
-1.3883085
0.87605013
2.031146
1.3910107
-0.98114323
0.79881034
-0.034713998
0.84740091
-0.12505808
1.3615436
1.075531
0.84324496
1.1780288
0.7548315
1.6691814
1.3073715
0.73289291
1.2617829
1.4058613
1.2144619
0.96642771
1.1627897
0.94433199
1.810319
0.84122531
0.60317591
0.54029027
-0.043977395
0.90575381
0.82871331
0.87046009
0.8417528
0.68302847
1.6974149
1.1374091
0.39661626
0.516975
-0.69586689
0.25784965
1.0735868
0.756526
-0.74694173
0.76654232
0.51605293
1.3374768
1.1769002
1.0334483
1.2952944
1.1696852
-0.20158726
0.77208356
0.83562718
0.39340641
1.4486951
2.4405158
1.5049356
-1.7020796
-0.052400803
1.4844463
0.72482202
1.4627911
0.24095173
1.6111855
1.2430672
-0.18720574
0.7205019
1.0728215
-0.026118127
1.1533212
1.2126832
1.0709475
1.4721725
1.0878988
0.7817963
1.0156475
1.3982351
0.76531934
0.83872561
1.4239563
0.21360496
0.093716307
1.256307
1.6814357
1.2536688
0.96973964
-0.665463
1.6085705
1.8463886
1.5878559
0.86724954
1.696712
1.1824472
1.0593225
0.74901347
-0.82387895
-0.69784552
1.1201751
-0.95106554
0.57766243
1.7420618
1.5582691
1.2385415
1.9530316
1.1972902
0.75486939
0.98999425
0.97759288
1.6907701
1.111296
0.81242634
0.98032525
0.69110037
1.9457941
1.3331749
1.3103724
1.1313307
0.77397589
0.77440893
0.82530494
0.82182171
-0.37124122
0.90914747
0.94692012
0.61566456
0.67544572
0.81781776
1.0534255
1.5022796
0.904742
0.35103099
1.6344754
0.92505642
-1.1695368
0.97746997
0.51932416
1.1375881
-0.78329626
1.3184411
1.5060386
0.91533054
0.38357977
1.8051473
1.1294165
-1.1039139
1.8771061
0.52150481
1.4178606
0.9547724
0.74220175
1.032009
1.8767915
0.49300263
1.347222
1.3483333
1.4979695
1.2806352
0.43910653
0.989472
0.46004849
-0.90328227
-0.90328227
-0.90328227
-0.90328227
-0.90328227
-0.90328227
-0.90328227
-0.90328227
-0.90328227
-0.90328227
-0.90328227
-0.90328227
-0.90328227
-0.90328227
-0.90328227
-0.90328227
-0.90328227
-0.90328227
-0.90328227
-0.90328227
-0.90328227
-0.90328227
-0.90328227
-0.90328227
-0.90328227
-0.90328227
1.3880232
1.3058629
1.1542823
-0.78378524
-1.0503715
1.240771
1.1071019
-0.0021127921
1.1495534
0.84524938
0.68005488
-1.0296651
0.7981094
0.25653727
0.98597913
0.59319137
0.9601236
-1.2980173
2.0104963
0.63050065
0.20274408
1.5564496
1.1741661
1.2075967
1.1615007
0.78131026
1.2396829
0.49400379
1.0030922
0.0030944733
1.0647743
1.3025002
-1.0995352
0.98277884
0.91274601
1.1795467
1.1353981
1.0700595
0.97104998
1.2117306
1.6704159
1.5785726
0.69311459
0.76688722
0.7965864
0.33007331
1.1052521
1.0891711
-0.10169996
-0.25967137
0.66081154
1.1423982
-0.76026826
-0.90507145
0.11002502
1.1314121
2.0123481
1.3563496
0.89714424
0.85192128
-0.9807955
0.56011648
0.91603557
0.44892564
1.4094716
1.5837563
1.2925835
-0.1667443
-0.70251645
1.2141288
1.4528108
1.3058336
1.6614171
-0.33779856
0.84558948
-0.76142576
-0.13290039
0.91123828
0.14720268
1.1363987
0.96381027
1.7666038
0.90225826
0.93149687
1.3572538
0.84969579
0.57412279
1.2255309
1.4067369
1.0729538
-0.81855216
1.3643522
0.81517797
1.3240865
1.0799727
1.2713909
1.0486179
0.66780757
1.3496714
1.4506613
1.5566372
0.95459822
-0.17299671
1.1491679
0.89454581
1.3452864
-0.45374557
-0.42069087
0.68889889
0.92731987
1.4893524
1.4538086
-0.084589077
1.1966477
0.64018686
0.40310599
0.98100517
1.4059352
-0.84407312
1.4131066
1.3963053
1.0406364
1.323002
1.114536
1.5099575
0.93948471
0.95911675
1.6332656
-0.97217876
1.2270234
0.92459593
-0.78159675
1.2642165
0.95743606
0.6041567
1.4460296
-0.76142576
-0.011138898
0.47624883
0.32920951
0.96611943
0.21836932
1.6736096
0.65928481
0.43047481
1.3224787
0.43699579
1.5708553
0.45333101
1.1139272
2.0225561
1.337828
0.43393334
0.18349565
0.74943343
0.77299433
-0.95262941
1.7096432
1.2765838
-0.7704753
-0.92303924
1.4238748
0.59791578
1.4397767
0.13966684
1.2647694
-0.57991832
1.4439582
1.0446635
1.0109955
-0.158535
-1.4984382
1.6384767
1.4858788
0.8690198
0.96420425
1.0074172
0.73742729
1.4641962
1.1374316
1.4910101
1.4176261
1.2416539
1.2089994
1.2486298
1.1033723
0.52006358
0.10315454
1.7731413
1.206498
1.6360456
0.79856866
0.40634335
1.6461144
1.2251099
2.0673384
0.068327953
0.40656034
1.6873673
0.7946083
1.5043243
0.064418883
1.2218741
0.86061563
0.62604694
0.77616457
1.2040996
0.9014715
2.4037052
1.3462746
-0.17267361
0.55626528
0.83768501
0.85276197
-0.34000349
1.0800618
1.0421892
1.2653644
0.79979573
-1.235842
1.1341681
1.1261316
0.22686791
1.5649538
-0.57856914
0.88731429
1.8976419
0.80523612
1.0429593
1.2635329
0.98679734
1.3573634
1.3717526
1.2335425
1.467995
1.3506113
1.0465965
1.0625601
0.59086559
0.92394601
0.61340527
1.8397936
0.91602139
0.9216679
1.0101852
-0.61370667
0.77608353
1.2442907
1.454023
-0.74239123
1.2560544
1.8038237
0.88561705
1.1421592
1.474649
0.43054753
1.3675936
1.0537479
1.2308796
-0.23008726
0.59919569
1.0642064
-0.89166383
-0.7823837
0.95658756
0.89007006
0.62786907
1.1962897
0.63947905
0.84484989
1.0748095
-0.0072580658
-0.65930526
0.29727497
-0.15283069
1.3084828
1.2648094
0.78384854
1.5338711
1.0168985
1.1652151
1.3724526
0.12838902
1.2813049
1.1549076
1.0895453
0.60045643
0.53174595
1.6239289
-0.75356541
0.99530034
1.4895336
0.72850936
-0.95893136
-0.95893136
-0.95893136
-0.95893136
1.4100371
0.65459701
1.2899975
1.4472027
-1.0078868
0.74872026
0.098304378
1.1159397
1.1658233
1.2234072
1.0003485
0.99594128
0.75473704
0.94797444
2.1431771
1.2253442
1.6132933
0.60476595
0.84882814
0.84488114
1.3678367
0.99868465
0.99027032
0.7958301
1.4130317
0.99741767
0.78674415
-0.96530206
1.6667029
1.6631106
0.76729919
1.0303403
0.66236474
2.1668253
1.4679462
1.2160546
0.50700127
1.38541
0.11340222
1.7039396
1.0869412
1.2720444
0.74996775
1.4879766
-0.39119279
-0.044301409
0.97033038
0.72847858
1.3066821
0.10282346
1.5024356
-0.75502637
1.2613282
1.26756
0.85821764
0.44981717
0.44981717
1.2620786
0.87133545
2.0351029
0.70174096
0.81738773
1.0504181
0.97468396
1.2334734
0.20723065
0.11210173
1.1154808
0.051254166
1.3544719
-0.2643562
-0.86927564
0.89904779
1.49158
0.80423038
1.3003873
-0.95902487
1.7529081
1.3188025
0.13268621
1.2186023
1.3474345
1.0238047
-0.97873139
0.58475636
0.61238284
0.71347625
1.4577957
0.39011273
0.63118292
2.1342923
1.5152579
1.0507019
0.69875936
0.58822739
0.72693431
0.76613951
0.93022831
1.250478
-1.236768
2.2984002
1.1443829
1.3726623
0.68882077
0.83658013
1.2200911
1.4450442
0.98742372
1.1435223
0.3880069
1.3107038
1.3250744
-0.943362
1.2554123
1.1647936
1.4438438
-0.27111538
1.3950892
0.9998517
1.4995367
1.8583884
1.4371244
0.81703901
0.5549014
0.1081536
1.0719448
0.66780318
0.49731282
1.3166116
1.4687919
0.046813627
0.85785257
1.3169921
-0.29953386
0.54270227
0.61895211
1.4431139
0.78913485
1.2692574
1.3160397
1.2572136
1.0621935
-0.61030603
0.73026078
1.2736443
0.73973764
0.86124109
-0.79565079
1.3366706
1.1915986
1.4779246
1.0556766
0.28218296
1.4517184
0.8192476
0.64209554
-0.88840864
0.30813299
0.80177846
1.0941798
1.2556631
-0.23122125
-0.43690859
0.55436268
0.44053191
0.72314863
0.71059487
1.4533597
0.93123066
1.7870624
1.2369806
1.3436679
1.1002352
0.65763266
-0.64932235
1.0823804
1.1620491
0.98046806
1.6298444
1.7294372
0.67972948
1.6371041
1.0549319
0.52913705
1.3353905
1.165243
1.1245039
1.1758486
1.2607949
-0.52694385
-0.76790469
1.052534
0.18588392
0.73138404
0.4626331
1.1701805
1.8306688
1.6852751
0.29141574
1.0594228
-0.25442956
1.5754456
-1.0068034
0.35330412
0.66104193
0.53404444
1.6784338
1.1663285
-0.76872156
1.1216682
0.78545791
0.99637321
1.1681633
1.2208929
0.83716099
0.93854245
0.55018784
1.3335683
0.17822721
0.20968097
-0.31318055
0.82880803
0.998431
1.0721731
1.5030285
1.6759079
-1.2992608
1.9473012
1.0671927
1.014338
-0.52210038
1.8481829
0.81501767
1.0547271
1.9068757
0.57700487
1.2276432
0.53624394
1.7340872
1.5019684
0.91361116
-1.3116008
1.0780921
1.5148207
1.0440818
1.1052447
0.8921713
1.5539522
1.2344781
0.73338848
0.70473032
0.81740718
-0.90328227
-0.90328227
-0.90328227
-0.90328227
-0.90328227
-0.90328227
-0.90328227
-0.90328227
-0.90328227
-0.90328227
-0.90328227
-0.90328227
-0.90328227
-0.90328227
-0.90328227
-0.90328227
-0.90328227
-0.90328227
-0.90328227
-0.90328227
-0.90328227
-0.90328227
-0.90328227
-0.90328227
1.1337448
0.99022624
1.5499664
1.0190141
0.96143157
-0.059380237
0.54409553
-0.046017158
1.6160718
-0.93214073
0.62721097
-0.8615498
1.593877
1.3129662
1.0828254
1.2968489
1.4179819
-1.5054977
1.6973513
1.2275365
1.0072351
2.0576799
0.52934863
0.66001054
1.0842049
1.2397094
0.50576865
0.9708544
0.63615345
1.3060484
1.0194031
0.97383044
0.19890353
1.670793
1.2181282
0.11607841
-1.0798039
1.5022489
1.0001729
0.44041762
0.5330875
1.1584508
0.85794341
-0.89488749
1.0890011
1.0105962
1.0895257
0.57522458
-0.63090156
0.5435879
1.5374301
0.99258811
1.0140562
1.0287279
-0.084126202
0.69940759
-1.0199942
-0.65793792
0.52657155
0.9910818
1.7578047
0.91037515
1.4690149
1.4096774
0.93782132
0.76679756
1.2085855
1.9129169
1.0575464
0.93941817
1.6180049
1.3267816
1.5916311
0.83665819
0.94177721
-0.95990865
0.99099513
-1.4163629
1.0898995
1.0587403
0.56594763
-0.63704992
1.2404844
0.14819951
0.82291331
1.0317328
0.93042766
0.88292959
0.85547944
1.5062632
0.61215628
0.76185937
1.657289
0.89644201
1.2209149
0.19861965
0.85195005
-1.256051
0.89120135
0.65112678
0.80978456
-0.98114323
0.3783081
0.43999288
1.1048797
0.8692303
1.188687
-0.69993108
1.5571983
1.6447015
-0.45348184
-0.81063986
0.95990015
1.0477487
-1.0248546
0.67660927
1.2198853
1.3169298
1.089018
0.89310235
0.84652834
1.016811
-0.68348666
-0.8738499
0.68642812
0.84566156
1.3734544
1.2495297
1.4979695
1.4979695
-0.73746004
0.9602713
-0.053649094
1.6719104
0.56782634
1.7014386
0.98643472
1.0323511
1.0023124
1.0063754
1.504453
0.89358772
1.8222414
1.3442842
0.33352006
1.3625147
0.90206183
1.2196041
1.0627976
1.2684941
1.3062226
1.494767
0.98375472
0.96357228
-0.080773462
1.1314716
1.4669812
0.70965183
1.2380666
0.24766799
0.98047068
0.84376178
1.384561
0.95273286
-0.084171499
0.993495
-0.073628392
-0.65828032
0.85464979
0.53076441
1.2952968
0.90604402
1.2835514
0.65809413
0.86279019
0.75618051
1.0790949
0.73909345
0.89801799
0.95284592
1.3806604
0.1594723
0.060860741
0.88607747
1.1661662
-0.33045698
1.0129391
0.28351868
0.43215057
1.0871973
1.1388557
0.92343932
1.6828312
1.3266786
0.52470115
0.76068957
0.75907079
0.58149095
-0.69742892
1.1784545
1.0993521
1.8104787
0.34395469
-0.12910713
0.85681565
1.0860353
1.3167871
1.3117031
1.1676748
-0.27191349
1.5569695
1.2390076
0.34660709
1.2347192
0.97670882
2.2135543
1.0544518
0.8721557
1.0870736
1.0736375
-1.2133492
-0.54967305
0.85538297
0.79092333
1.3805618
0.62832786
-0.95990865
0.62923274
0.90106588
1.2148179
1.2133618
0.26665016
0.55814544
0.90317804
1.033439
2.0520766
1.437434
1.2574558
-0.036229203
1.9919587
0.58389913
1.6195915
0.58435154
0.98042472
0.93792914
1.1364644
0.14351307
-0.61897118
1.192013
1.4351244
1.2112813
0.70738416
1.2520801
1.2689442
1.3424973
0.27448687
0.8056687
0.86114248
0.84026413
1.2723361
0.96267845
1.3344232
-0.68789366
1.216741
0.45250785
0.67115679
0.58255621
0.87376039
0.80475496
0.94799716
0.95742208
0.10363771
1.4979695
1.143429
1.445986
0.91181317
1.0262402
1.5107925
0.50609505
1.4712602
0.38353237
1.5693377
1.4849287
1.0896342
0.38889659
2.2023622
1.3153209
1.3091992
1.4444267
1.5873639
0.61803623
1.0499271
1.2148679
1.3296982
0.76196489
1.8291552
0.81350601
-0.66534717
1.191051
0.35494121
0.26936886
0.48163477
0.82318225
0.38336023
1.981204
0.66388992
0.56306045
-0.40724831
1.1804782
1.5074379
-1.2593604
0.72796538
-0.58567987
1.2096755
0.63474726
1.2791236
1.4718884
1.100676
0.89788753
0.95145235
1.327516
1.084523
1.1091868
1.7011048
1.0013768
1.4516046
0.64014541
0.83952747
-0.074261668
1.5802832
1.6472748
1.0233268
1.0350412
1.6662364
-1.1054938
-1.3252015
-1.3252015
-1.3252015
1.4446238
1.2172548
-0.69374707
0.87055443
1.057876
1.3214488
1.3478806
0.75457858
2.1591194
0.5699599
-0.017078873
0.26916863
0.2047586
0.96083501
0.72747755
1.107593
1.4408739
1.0863823
1.5059938
1.6363988
1.5674231
0.64741038
0.76881035
0.55569393
-0.29777413
1.8303406
1.501893
0.63171884
1.8630228
-0.58378471
1.1136939
0.91402465
1.4230844
0.88989816
1.1967751
2.0562453
1.4828393
1.5303959
1.1759556
-0.34311125
1.0612318
1.3805834
1.0402593
0.45032121
0.3748147
1.9733139
0.9534112
0.22942278
1.3898702
1.2710921
1.6584171
1.2103438
1.327109
0.24854426
1.4672136
-0.4618945
-0.83708252
0.47786755
-1.5925614
-1.1401025
0.3682292
0.41211515
1.3230138
1.3129158
-0.48211031
0.80856877
0.20225314
1.5938291
0.046043437
0.73150057
1.4853556
-0.93075626
1.0737256
1.0563838
1.5658348
1.5435964
1.0122461
-1.3206203
0.61329186
1.2333082
0.89709361
0.91989504
0.90468516
1.113557
1.4816153
0.22512383
0.64888262
1.6017443
0.91230645
1.9989686
1.2908476
-0.64868118
0.90051306
1.0871941
-0.90507145
-0.90507145
1.0612931
1.5636829
-0.29607519
1.7144917
0.58510098
0.95847356
1.6560426
1.290271
1.5924072
2.2487434
1.4216949
0.81735448
0.87970172
1.3956652
0.33779172
0.99573266
1.382791
0.59200698
1.2258713
1.2358683
1.6587049
1.3640523
0.41423342
0.87021151
1.10301
1.8334975
1.4574982
0.75707666
1.0628198
1.4195429
1.4132746
0.467077
0.61966887
1.3645544
1.4918939
1.3805599
0.83657386
1.3852568
1.2496769
-0.75876133
1.2589641
0.75021911
1.1105552
1.4789899
1.6493118
1.7106013
0.33835858
1.7898264
0.048038973
0.0066818375
1.4125144
1.6699163
0.61812422
1.8219929
1.5093169
0.90663876
1.2882416
0.62701197
0.32674528
-0.63983593
2.0443438
1.5660449
0.95986407
0.29601938
1.7139158
0.71774685
0.72479888
1.4014571
-1.2784534
1.3510252
1.4708811
0.55787894
0.76265675
0.44776934
1.1402657
0.70266792
0.70088155
1.166256
0.81283901
0.35937002
1.3526837
0.9540548
-0.76314859
1.3400134
0.86560313
1.7151674
-1.6693638
1.736324
1.1401179
1.414311
-0.73746004
1.1438218
1.3943528
0.48356068
0.42628557
1.5698176
-0.62776589
1.3785648
0.89323661
1.1360239
0.94954418
-0.69174599
-0.66042472
1.2219768
1.1688187
0.47347438
1.8801835
1.1087594
-0.88074989
0.81987141
0.73910839
1.0904741
1.692277
1.2585607
1.5796972
0.45511432
0.95116197
1.1386478
-0.56078343
-0.16341094
1.5459541
-1.1151906
0.34918421
0.306844
1.0448115
0.83784286
1.300438
0.94847843
1.1284686
1.4195849
1.2949153
-0.82387895
-0.95990865
0.04948156
2.0693612
1.6136909
-1.5922049
1.2369211
0.92483224
1.1654767
1.1623407
1.3399327
0.80736358
1.2492069
0.34270729
1.5439176
1.2971105
-0.95750314
1.7965861
0.87443533
0.63899953
1.1437237
1.616162
1.0469272
-0.16289137
0.81532066
0.73214042
1.0411059
-0.2444233
-0.97873139
1.4665922
1.1864753
1.0790147
1.4353772
1.256864
1.0591634
0.93226572
1.277006
-1.0386493
1.2361554
0.89893687
1.3452679
1.4920148
1.3538325
1.9792183
1.3146
1.05592
1.1411621
2.1691305
1.1301929
1.1846962
0.63177577
-0.53405973
-0.87672163
0.92995312
0.98329683
1.0797325
1.6637513
0.12923065
1.0592576
1.3761915
-1.1120027
-1.0302087
0.92292131
1.103137
1.0289967
1.1082016
0.7798535
0.40857118
1.3443961
0.38195264
-0.95990865
1.5095006
1.3270918
0.97934457
-0.83490998
1.282767
1.4301502
0.54760294
0.59466819
0.74164023
0.93685647
-0.88224923
-0.44478397
1.8076819
2.1629871
0.43834022
0.92469843
1.3886078
0.090742796
0.4090841
-0.082756392
-0.27855783
0.97328711
1.2919986
1.3796275
-1.0048076
0.81045726
0.66294201
1.6891004
0.68625618
1.887603
2.027293
0.42025511
-1.1363869
1.643408
0.93177977
1.0673183
1.0269925
-0.67347438
0.39401101
0.40316756
0.45358219
1.0228281
1.1839449
1.0427115
0.95689995
-0.86004349
1.119187
1.1725807
-0.76142576
-0.73987747
1.0303403
2.1377118
0.79422755
0.93401654
0.99115381
1.333538
0.70573352
0.97430015
-1.0638151
0.38745187
-0.69375983
0.31433189
1.1986714
-0.083483512
0.68254653
1.142505
1.7253372
-0.94634099
0.37911574
1.3792906
0.3247271
0.96186845
0.85422414
0.98100551
-0.69117746
1.1909598
1.8978543
-0.17576125
0.6651578
0.41716849
-0.28215668
1.0626102
0.84260244
-0.11967098
-0.75840157
0.95477577
1.4929356
0.74198436
0.90419405
1.8721507
0.74756473
0.649337
-0.090420767
-0.82387895
0.98855135
1.3777834
-0.19104796
1.3533313
0.99185788
0.59094361
1.0233761
0.71513261
0.55080349
1.1800009
0.93289693
-0.060990567
1.955006
1.3594922
1.6532032
1.0573743
0.7869864
0.43179735
0.82135613
0.11552532
1.1824108
0.94382896
-0.90328227
-0.90328227
-0.90328227
-0.90328227
-0.90328227
-0.90328227
-0.90328227
-0.90328227
-0.90328227
-0.90328227
-0.90328227
-0.90328227
-0.90328227
-0.90328227
-0.90328227
-0.90328227
-0.90328227
-0.90328227
-0.90328227
-0.90328227
-0.90328227
-0.90328227
-0.90328227
-0.90328227
-0.90328227
-0.90328227
-0.90328227
1.486015
1.6055037
0.90092578
0.74185723
0.95969755
0.56893973
1.0335873
1.6668102
0.7259978
1.0155444
1.0930154
0.79190362
0.70837236
1.7036798
1.0477147
-1.0673489
1.0921443
-0.18137492
-1.1917897
-1.1917897
-0.45616148
1.4743183
0.85706847
1.3387662
1.0066837
0.83358348
1.8301055
0.53662219
1.4567794
1.1852545
0.91101096
0.72990976
0.46641259
1.4096626
0.92413152
1.1393863
0.9928579
1.7848916
0.35981658
1.4723378
1.4688034
1.4441736
0.12413715
0.92553337
0.47881431
1.0120893
-0.893952
1.1643131
1.2303239
0.49554427
1.1076786
0.92080692
1.173861
1.0940276
0.44037415
0.91572844
0.56171484
0.85701929
0.83953108
0.7340413
2.02466
0.71515811
0.71515811
1.2744956
1.2554883
1.4441909
1.1046383
1.6119488
0.83172117
1.349589
1.443218
0.73848987
0.7070265
1.0580536
1.1852865
1.0132577
0.77722829
0.73681974
0.99766098
1.0781483
1.4171451
0.23838081
0.83166606
1.0279509
0.24439587
-0.9046821
0.87076282
1.5961694
1.0082367
1.5074811
1.1025691
0.91716865
0.85460733
0.089143538
0.84323286
0.83424009
0.90570221
1.2423534
1.3043767
1.5169578
1.0858633
0.3192735
1.0607672
1.3044745
1.0337578
1.5927285
1.0310111
-0.061583322
2.2036866
0.79698206
1.4791196
0.85322155
1.2525547
-0.83750545
0.64791265
0.81537576
0.74375143
1.4908269
1.7337232
1.0373728
-0.32699507
-0.86417115
0.66484785
0.8784898
1.3744206
0.87326049
-0.74975446
1.0845959
-0.59578901
0.22740109
1.4304283
0.57316525
1.7763692
0.98088322
-1.0369205
1.2286397
0.77499286
-1.1554975
-0.071606604
0.91180757
1.3536079
0.75077549
0.92823575
0.75968338
0.53939794
0.60781137
1.3403303
0.75858204
1.5927152
1.5772517
1.3224034
1.3958992
-0.61338705
-0.079229
0.99609367
1.3077803
1.6781996
0.63456668
1.2201575
-0.51970482
0.86467961
1.1793142
0.84482191
0.93488643
1.1897261
0.17971078
0.37356839
1.6695202
-1.0597656
1.1960911
-0.75574182
0.45294068
1.0300402
1.2098882
1.4415109
-0.51248862
0.33720762
0.013592763
1.721343
0.89187071
0.92847821
1.2509697
1.1059901
1.0660397
-0.62651575
-1.1640114
-0.38139379
0.60926795
0.51112156
-0.90616387
1.5023966
-0.64021461
1.1185902
1.5641321
0.92931935
-0.94956659
0.60869256
0.77583879
1.4154182
1.4320291
1.5654993
0.98289614
0.95108041
0.7965778
1.1269328
0.85234652
0.74853512
1.7014544
1.0623894
0.73822529
1.0928901
-0.7907953
0.76835411
0.57929921
0.85495322
1.179434
0.92305133
1.3415116
1.3905303
0.84058099
1.1362327
1.6327784
1.2073318
1.0932164
0.3401839
0.99685922
1.5647215
0.10831336
1.2791081
1.6511933
-1.134239
0.16587176
0.59283072
0.54607222
1.7541792
1.0561191
1.8092812
0.1782844
0.79235159
0.3352798
0.83033417
0.86091667
0.92978083
1.013102
-0.34386785
-0.34386785
0.83583954
0.90991578
1.1117259
1.295544
0.9394058
0.40133898
2.1792536
-0.2732159
0.37623094
1.4068558
1.2109089
0.6426518
0.81961793
-0.69894166
1.7709228
1.496087
0.98380298
1.0416839
0.92868431
0.53789731
1.3390339
-0.603528
1.3853487
0.9536812
0.038502386
0.97244823
-0.85599195
0.90911803
0.96587334
0.88770537
0.20191105
-0.54573393
0.58192691
1.290712
0.41706523
0.23546889
0.54151749
0.31473101
0.24619963
1.1345126
1.606874
0.93078957
-1.3296343
1.0504617
0.74828966
0.84210525
0.70669213
1.3207983
1.4159153
0.90651083
0.58343919
1.4040688
1.5167301
1.5825037
1.3686799
1.8461898
-0.24673198
0.583787
0.88248193
1.4620827
0.35526695
0.606418
1.3997989
0.5254027
0.62648279
0.83564722
1.1146014
0.67567182
-0.77789466
1.0979159
0.026050893
1.2414132
0.25128525
0.17653641
1.0680371
0.92375931
0.96800273
0.73464318
1.4341717
1.1897286
1.0039293
1.2066839
0.86009226
0.45947783
-1.9245517
1.0607207
1.5378711
0.61172865
1.2881802
1.0551134
0.70798649
0.90350168
1.8555823
1.3702009
0.61580761
1.2678297
0.37735121
0.68282789
0.72951514
0.6049086
1.5780362
1.4678162
-1.5054977
0.49362299
1.204034
0.76575671
0.6910782
2.3449123
1.4129042
0.98645765
0.802027
1.3129589
-0.74884706
1.8062858
0.95906986
0.7840673
0.57700248
1.481857
0.25122906
0.34663181
1.0198711
0.48746551
0.14063883
1.4115758
1.3361715
1.1340735
0.96496317
0.933817
0.72155332
0.8206643
1.0354618
1.3686958
1.1546805
0.08860773
0.38249146
0.91181273
-0.65033735
-0.14408492
0.15538109
-0.90710347
-1.3297667
1.2606585
1.5325179
0.36231597
-0.46386795
0.51149542
-0.95990865
1.1861433
1.015009
1.2675394
-0.84696402
1.1378056
1.1387369
1.2676132
0.24878649
0.59788961
1.5046313
0.89989099
1.340008
0.61524664
0.80714888
1.0200728
0.80865329
1.49543
1.2470843
-0.72588435
-0.93854091
0.92337955
0.65733513
1.37454
1.5318642
1.0188288
0.87482147
1.5431709
1.5460089
1.0173466
1.003136
1.6826664
-1.580752
0.77430588
1.7547295
-0.77663704
1.5470425
1.1884882
0.60377317
0.97666515
-0.68611741
-0.38123421
0.94131534
0.66654935
2.1196063
0.40656034
1.7088113
0.90566987
1.4847479
0.68277274
0.53516015
0.49355533
-0.60562706
1.2342711
-0.73379312
2.2326679
1.0149669
0.61073088
0.8674881
0.25898922
0.56769951
1.5851505
-1.1861139
1.0548884
1.2670606
0.78770496
1.1276293
0.82725131
-1.1917897
-1.1917897
1.0693456
1.4187168
0.25725514
0.66801557
0.56184442
0.85871475
0.82162194
0.35142701
0.77408486
0.53028219
1.4107777
1.0924223
0.9756916
0.19428568
1.6872013
1.641545
0.40503738
0.66675415
1.1710823
-0.91007922
0.90207111
1.29329
1.1375967
1.3967262
1.0272005
0.62526107
1.1183151
0.28422841
1.5242379
-0.81651002
0.36790847
1.3784421
-0.29627059
-0.95893136
0.89456752
-0.15779996
0.70801822
0.83714846
1.1761985
-0.94064365
1.3861082
1.5901592
1.5422234
0.24558344
1.1070498
-0.86889415
1.2461029
0.86724994
1.9787152
0.47281572
1.3748715
1.3018362
0.54805942
0.97699161
0.75844541
1.1887533
-0.76142576
1.3669951
0.52390985
0.73500402
0.40448634
1.1229054
1.9208654
1.3424462
1.3469401
1.3469401
0.9999228
0.38735885
1.7098607
1.2938915
1.073226
0.61256881
1.4275993
0.97666547
0.33223449
-1.1064641
0.99025743
1.0383637
0.96363433
0.97743838
0.78390651
1.2530322
-1.2822459
0.99041443
1.0533902
1.0848982
1.0330674
1.2220293
0.98312547
-0.63196249
0.8885883
1.6846464
0.98530476
0.70679321
0.75458547
0.92286853
-1.3134135
1.8682141
-0.95236482
0.87390691
0.90798356
-1.5178637
-1.192017
-1.192017
-1.192017
-1.192017
-1.192017
-1.192017
-1.192017
0.36695977
0.72050252
1.5640008
0.69165372
0.87141867
1.1918163
-1.3249931
1.5664545
-1.3584563
1.0873155
-0.74738231
1.1899632
-0.3154622
0.46507839
0.44162762
-0.66952423
1.5469083
0.9727197
1.1668531
0.99433158
1.0992828
1.22508
0.11838142
-1.0086806
1.1264931
1.3590784
1.0823154
0.44270371
0.79900517
1.2017155
1.6988424
1.5285581
1.4209662
0.80491609
2.0185191
-0.92280309
0.91030456
1.0168846
1.0728807
1.6069707
1.2203901
-0.70251645
0.73975768
0.71142156
-1.6279988
1.3870315
1.3642788
0.20459804
-0.93980248
-0.85561058
1.6702677
-1.1468814
1.5508456
-1.2328551
0.58947957
1.2217346
1.5774917
0.7315229
0.49437521
1.506268
0.14467804
-0.70160715
-0.64222404
1.4310342
0.17661871
1.4746702
1.0991482
1.1114252
0.16234682
1.2255434
0.33027793
1.0863786
1.1202259
-0.66562926
0.8579318
1.9941329
1.2139972
1.103137
-0.9199106
-0.98609363
1.0021569
0.1212781
1.4481947
1.187579
1.1977771
0.76854908
0.49224011
1.1659125
1.4275125
0.70788577
0.2799104
1.0282436
1.0314734
1.0718893
0.51015069
0.62049908
0.95088634
1.1162246
1.4750425
0.90117665
0.93690131
1.5276857
1.623205
0.25918779
0.61193245
0.25664748
0.37851839
0.76499215
0.8516387
1.1496692
1.441408
-0.57764428
0.99559816
1.3098297
0.86147624
-0.76142576
0.053765977
0.57640296
0.8497753
-0.62936353
0.87832842
1.6014866
0.45516259
-0.85503323
0.93043413
1.0924708
2.950457
0.89685125
-1.0900326
1.4897252
0.49193869
-0.69519775
1.0871337
-0.59685811
1.3078065
-0.81815259
0.91833992
1.5794637
1.2408066
1.0493671
0.89147812
1.394128
0.18951427
1.8713766
1.2825435
1.2628145
1.2017907
1.0959845
1.193624
0.68443872
0.68443872
0.29063734
0.84752209
0.24918335
1.4835818
1.1425464
1.5651418
0.9026028
0.82442788
-0.051710516
1.3467388
1.6080173
1.3359167
1.3941228
1.1011061
0.56469164
-0.52884024
1.2484257
1.0604946
1.1719799
1.1201886
1.4134518
0.47486633
-1.308621
1.0640487
-0.7959157
0.80514655
0.80345754
0.30720602
0.021082403
0.6867077
1.1568508
0.33719051
0.99133471
1.5170304
1.4167661
-0.50055316
-0.50055316
-0.50055316
-0.50055316
-0.50055316
-0.50055316
-0.50055316
1.0160325
0.45914329
0.98933663
-0.89037464
1.3174153
0.92773174
1.2273596
1.8804498
0.95443708
1.2014521
1.0767288
1.1135213
1.8717755
1.0682915
1.0166231
1.0789411
1.1833332
1.506253
0.84202128
1.7176329
1.2560796
1.2168478
-0.20224584
1.1170497
0.66829043
0.98100517
0.7940487
-0.0048312747
1.4478752
0.46712393
0.28938054
0.7315304
0.81666288
0.81951549
0.56639646
0.82055501
-0.60742545
0.77443774
0.99884997
0.79288305
0.97604383
0.9759565
0.74055733
0.56622436
0.56019207
1.6082829
1.0112377
1.6129574
1.5583005
0.84524534
1.7266832
1.0684551
-0.80846431
1.2426557
0.86152514
1.2880028
-1.0019432
0.71418775
1.2534544
-0.092146446
0.93236867
1.5375284
-0.36975146
1.6937436
1.1748985
0.7952927
1.2201832
0.58597734
1.1132821
1.8887714
1.3598793
-1.138163
1.2636821
1.0229511
0.13632865
0.96409241
1.0698279
0.70066823
0.76914725
0.82058592
1.4979516
1.2632621
1.0692666
0.55229279
-0.53834213
1.0418495
1.0277771
0.97119287
1.246377
1.5965723
0.53586153
1.0176849
0.9539203
1.0809874
1.257036
1.0728458
-0.57900726
1.1072343
0.63695019
1.3140932
0.24674528
0.93335298
1.5175784
0.73922842
2.0027345
0.95952779
2.2406077
1.3975931
-0.91836971
1.8756907
0.79671055
1.0421042
1.1580328
1.4914645
-1.9920796
0.9781404
1.58103
0.43151596
1.0270377
1.2486031
1.388646
0.36252302
0.9394845
0.8115239
0.79803606
1.1127915
0.0089847376
1.1474354
0.81695954
1.0764243
1.1486723
2.2623102
1.643254
0.50077393
1.3154426
1.0463454
1.0341856
0.72656619
1.0515816
1.2615464
0.35680044
0.9320497
1.351873
0.32587185
-0.70758596
0.8938982
0.81346424
0.83954471
-0.30064796
0.85409953
-0.36011028
-1.192017
-1.192017
-1.192017
-1.192017
-1.192017
-1.192017
-1.192017
-1.192017
-1.192017
-1.192017
-1.192017
0.39106251
1.5609632
0.56725934
1.0652956
-1.055497
0.63438646
0.82431684
1.0384099
-0.75997609
1.2170612
0.72885274
1.2070838
0.98671066
1.3250226
1.4426844
1.2110818
1.6333709
0.039749921
1.8174095
0.91739901
0.82536704
-1.0050475
1.0846333
1.7709946
1.1565573
1.6198812
0.32137041
0.74893268
1.2158653
1.8673277
-1.0594144
1.2552716
0.55617187
0.23423574
0.87197938
0.8364179
1.613846
1.6815289
0.90757678
0.29911022
1.5839016
0.71297943
1.352767
1.4677931
1.1207681
0.66569684
0.49885888
0.53070129
0.91597598
1.3013334
1.8793524
0.3455885
1.1372688
1.4107921
-0.7993477
0.35681188
0.53852385
1.2172087
1.0259415
1.629408
0.70468481
1.4267317
1.095537
1.3583602
1.4947744
0.84764364
0.69460684
1.0011293
0.5775492
-0.37110205
1.5287609
0.83023407
-1.5297673
0.93441223
0.70971954
1.047393
1.3403735
0.65903292
1.5184458
1.553856
0.7629015
1.5475255
1.1410822
1.25325
1.2176863
-0.022132232
0.90407536
1.7617133
1.6312449
0.85536979
1.4846181
-0.95094979
1.2787214
1.4501322
0.90148491
1.3247123
-1.5421826
0.80723856
0.92280561
0.78566071
0.87585767
0.97901478
0.91476796
1.2895009
0.35480395
1.8384659
1.5790159
-0.83185954
1.0546269
-1.1121516
0.87714051
0.9710233
0.64272022
1.3060981
1.9534197
1.1353261
0.68524247
1.1691813
0.80313894
0.006704624
0.0032077357
0.91110854
0.70325202
0.91149912
1.1434633
1.33792
-1.192017
-1.192017
-1.192017
-1.192017
-1.192017
-1.192017
-1.192017
-1.192017
-1.192017
0.52153189
0.73395339
0.81516304
0.43026936
1.258159
1.0520342
0.72271128
0.71071433
-0.77910038
1.3715773
1.026637
0.81659903
0.4324232
0.70961375
0.69196901
0.97189919
1.3590107
0.77713668
0.88641123
1.0565336
1.3958959
0.92045281
1.2055587
1.1977218
1.6216222
0.70092017
-0.67939628
-1.0488776
0.068368438
1.2137823
1.0458881
1.0002763
-1.51741
1.1105532
0.56614713
1.0226845
1.3424485
0.887854
1.395306
1.9969971
0.91072292
1.0830137
-1.1407554
1.5803875
0.60833098
0.28526457
0.94167047
1.1821279
0.039114239
0.33268802
-0.90328227
-0.90328227
-0.90328227
-0.90328227
-0.90328227
-0.90328227
-0.90328227
-0.90328227
-0.90328227
-0.90328227
-0.90328227
-0.90328227
-0.90328227
-0.90328227
-0.90328227
-0.90328227
-0.90328227
-0.90328227
-0.90328227
0.89407095
1.1291576
0.19172922
1.6464091
1.1409029
0.37223438
-0.3933438
-0.51687082
0.92290382
0.43854721
1.2648941
0.84613987
0.57754421
-1.2557182
-1.2557182
0.3355464
1.402176
0.78180011
1.0006456
1.2841255
-0.84671116
0.75534586
0.010466576
0.84899499
1.1611053
1.3649622
0.62504058
1.2349158
1.160173
0.75572691
0.94919623
0.57130278
2.2511175
-0.38623874
1.325372
1.5590387
1.4959569
1.4356204
1.0907866
1.6881699
0.95514311
0.70269353
0.82355648
1.1637139
1.5690479
0.11244611
0.38740018
1.2329401
-0.87537415
0.76702911
1.6446651
0.49453524
0.78318445
1.4453864
1.2650494
0.98330828
1.0457456
1.8257189
1.4205792
0.51578624
-0.5565498
0.65080717
1.0916986
0.83813363
1.3686024
0.90300835
1.7450953
-1.1917897
-1.1917897
0.35259996
0.44661942
0.99876736
0.72081082
-0.58608152
0.27051473
0.80642283
1.2940792
1.680744
-1.1882304
0.83906632
1.4982366
0.18648894
1.6560939
-1.2594837
0.79958706
0.30104049
1.2347571
1.4726106
1.4126393
0.93929929
0.99072782
1.2949429
0.069965262
0.8202556
1.0374957
1.2137771
1.176506
