0.78719766
0.78656126
0.78676049
0.78953748
0.78654926
0.79198958
0.78819808
0.83368041
0.78717545
0.80220689
0.78783351
0.78691474
-0.15444357
0.78708854
0.2576094
0.88930307
-0.15417565
0.81353975
0.87050855
0.79362282
0.80217728
0.79303657
0.7952472
0.78748731
0.80294332
0.78965859
0.78683611
0.92366596
0.8297963
0.78775117
0.78795929
0.80423987
0.78649495
0.78683416
0.78760486
0.81734808
0.78813816
0.9286335
0.78757588
0.78661503
0.78441665
0.82338106
0.80325619
0.78680939
0.78662256
0.78675759
0.83179077
0.78756976
0.91019106
0.78666312
0.78712195
0.78688298
0.78658307
0.80026995
0.79619832
0.80379007
0.7867265
0.78774935
0.79326541
0.80300085
0.80059272
0.78735346
0.78699855
0.86006434
0.79341571
0.79061185
0.78657942
0.79609702
0.78790467
0.79012447
0.79325852
0.7918122
0.78678484
0.78677997
0.78465571
0.80931383
0.78885586
0.94453427
0.7868155
0.78798591
0.78687581
0.84299424
0.78961665
0.78737143
0.79255024
0.78687809
0.87789652
0.7872353
0.80149464
0.78656953
0.79412847
0.78659687
0.85873723
0.78674999
0.81136705
0.78703757
0.78712994
0.78666077
0.78658901
0.78803977
0.85848569
0.78670391
0.82822249
0.83242551
0.78669669
0.78657256
0.79752043
0.78748905
0.89940542
0.95063843
0.83325863
1.1002462
0.90415393
0.78655857
0.7966063
0.83548517
0.81763129
0.79853032
0.78656211
0.84409188
0.83391272
0.78880755
0.8136821
0.78858552
0.79338818
0.78654891
0.78904917
0.80151028
0.78691617
0.79020653
0.78665936
0.78661439
0.78593601
0.78758876
0.79181694
0.78661798
0.78698193
0.78831161
0.78727858
0.79301966
0.7905379
0.79918201
0.78687064
0.86069293
0.81584593
0.79552136
0.78833033
0.81026594
0.79468208
0.79272193
0.78685435
0.8470671
0.82726351
0.84292526
0.79947054
0.79581447
0.78803795
0.79720073
0.78654281
0.78718025
0.78708392
0.82091012
0.84456628
0.78738254
0.78842443
0.82702852
0.7865776
0.78978875
0.83332581
0.78684129
0.79764379
0.78663301
0.78683947
0.78659986
0.79159198
0.7909236
0.90515291
0.78705271
1.0187912
0.97649266
0.84197034
0.81069201
0.78664783
0.78655792
0.78826304
0.79907509
0.78656196
0.79631998
0.78754265
0.78694149
0.78818857
0.78682118
0.89957996
0.78836518
0.83669621
0.78895074
0.81333519
0.78683831
0.7909383
0.81404795
0.786598
0.81288037
0.81261114
0.80086676
0.78678006
0.78656039
0.85928949
0.78728617
-0.15418596
0.78701673
0.78590555
0.80011801
0.78658555
0.78664451
0.79425565
0.78657655
0.75948714
0.79255454
0.82182802
0.78797252
0.78825131
0.78638278
0.80587514
0.79036589
0.78573249
0.78690846
0.78807555
0.78754718
0.79179007
0.95887294
0.82101044
0.79330917
0.80722622
0.79197953
0.79325437
0.82352509
0.78667968
0.83731047
0.79973609
0.78808282
0.82059589
0.77269486
0.78734676
0.79979325
0.79221942
0.81817564
0.78660836
0.77151981
0.78656161
0.79112431
0.78676556
0.78667966
0.78668467
0.82735545
0.78838844
0.79459239
0.7881968
0.7865027
0.78817671
0.78659247
0.78658002
0.78671777
0.78656129
0.78845273
0.78715325
0.78730126
0.79788615
0.78442342
0.78713816
0.78460552
0.78663694
1.0213585
0.80093212
0.78810768
0.84607751
0.7869477
0.80738783
0.78655003
0.84242703
0.8879887
0.78734432
0.89516312
0.81106623
0.78991295
0.79950229
0.78954023
0.79215249
0.78683715
0.78688113
1.1615627
0.78678042
1.1013981
0.78951725
0.79302021
0.78656114
0.78670054
0.80738478
0.79041236
0.81758807
0.80069603
0.83255613
0.78657061
0.78790475
0.8572925
0.78732129
0.73201785
0.78675864
0.80861757
0.78699878
0.79001496
0.79594899
0.78679251
0.93445078
1.044599
0.78670114
0.786563
0.78929056
0.79871456
0.79871456
0.83936408
0.66100329
0.80118693
0.84354279
0.78767776
0.79650609
0.79828499
0.83080901
0.78385192
0.78903
0.78703311
0.7913117
0.7866722
0.78674134
0.79043261
0.79257344
0.78662586
0.78670735
0.78664892
0.7952153
0.79381568
0.79381568
0.7962329
0.78832037
0.78656857
0.80130459
0.78704326
0.99567808
0.80101393
0.78762201
0.78556239
0.79175867
0.80503108
0.78643694
0.78940575
0.80732055
0.78832708
0.79281688
0.79009685
0.8164898
0.83935283
0.81248502
0.79072722
0.79711542
0.79549223
0.7865169
0.78833554
0.79029783
0.78796623
0.78663286
0.80187709
0.78942044
0.78662271
0.78653225
0.78660773
0.78669428
0.78790315
0.78945472
0.7865781
0.79238193
0.78478558
0.79011752
0.79251142
0.78670194
0.86952691
0.86840648
0.78439967
0.78710466
0.78927844
0.79466237
0.80256961
0.78656208
0.78790726
0.7955284
0.78657051
0.78713907
0.96281584
0.78875367
0.94909163
0.89377539
0.78671657
0.81300782
0.81336896
0.88849775
0.80426868
0.78916908
0.78731811
0.79711016
0.81473844
0.78656213
0.78709591
0.78652036
0.78888782
0.79058421
0.84107764
0.78666054
0.8782759
0.78716697
0.78916507
0.85401017
0.79206095
0.78650504
0.7865663
0.79196272
1.2577461
0.7875946
0.78679762
0.78638741
0.78654234
0.78524981
0.78656921
0.78367716
0.78665334
0.80250696
0.78654941
0.92584254
0.78668366
0.78761965
0.78668419
0.81720584
0.91513979
0.78652049
0.82123352
0.78665114
0.78718739
0.88050721
0.80271442
0.78782821
0.82412172
0.82402623
0.78685207
0.78697913
0.79457718
0.78822823
0.78728633
0.85880796
0.79030193
0.79093336
0.78729965
0.78945549
0.95059005
0.84915787
0.81473073
0.78732126
0.79855747
0.78688817
1.3889129
0.79716168
0.78666103
0.78693568
0.84794589
0.78800529
0.78608712
0.79161388
0.7913924
0.79853227
0.78635808
0.85917077
0.82112187
0.78898718
0.78640045
0.78679626
0.78664969
0.78836179
0.7865388
0.78660054
0.78673613
0.78656837
0.81938061
0.78787919
0.78656024
0.79073646
0.78778036
0.78562661
0.92327022
0.97639803
0.79073486
0.78667603
-0.58785196
-0.58785196
-0.58785196
-0.58785196
-0.58785196
-0.58785196
-0.58785196
-0.58785196
-0.58785196
-0.58785196
-0.58785196
-0.58785196
-0.58785196
-0.58785196
-0.58785196
-0.58785196
-0.58785196
-0.58785196
-0.58785196
0.78590548
0.80076769
0.83666757
0.78959513
0.79877615
0.78763944
0.79036333
0.78579986
0.78689046
0.79004747
0.80225254
0.78656584
0.80105894
0.78258886
0.78686317
0.78367716
0.80181577
0.7878321
0.79549855
0.78697734
0.78779854
0.7944581
0.79355651
0.79231702
0.78679643
0.78734252
0.78744866
0.79000891
0.7939238
0.79168591
0.86056837
0.78941995
0.81597136
0.80849984
0.79077819
0.80853163
0.78656746
0.84938842
0.78751395
0.79803869
0.78709263
0.79655357
0.78684474
0.86599944
0.81959662
0.78367716
0.78666854
0.78588344
0.8044854
0.7866332
0.78664465
0.78878771
0.78657091
0.78705943
0.81616652
0.78743825
0.93525534
0.78665566
0.78651204
0.78446794
0.79943356
0.78704239
0.82416728
0.78653348
0.78896242
0.78707822
0.78790325
0.78659042
0.78721961
0.78970587
0.78758071
0.86651074
0.7865715
0.79374229
0.81050773
0.79845471
0.81740673
0.78657138
0.81992982
0.78849907
0.78763112
0.82653421
0.78714308
0.78672999
0.78960737
0.86326586
0.79118415
0.83159996
0.86584314
0.80060566
0.87319742
0.91160366
0.79887926
0.78798351
0.79127458
0.78655163
0.78886101
0.79139024
0.88759975
0.7865121
0.78678912
0.78517845
0.78869149
0.78697891
0.78640389
0.78683458
0.7869476
0.79304874
0.90327543
0.78686036
0.78928675
0.81225906
0.78663163
0.84209704
0.81329509
0.78661321
0.78659384
0.84251038
0.74940859
0.78657673
0.78853872
0.78979395
0.78287218
0.7968002
0.78829238
0.94696909
0.7865629
0.80142072
0.78661308
0.78684612
0.78742747
0.78666737
0.78680533
0.78650402
0.79292236
0.78721762
0.78673037
0.78620883
0.96358975
0.7888056
0.95839159
0.88182257
0.78841009
0.8200736
0.78665107
0.82187783
0.78684103
0.81232963
0.96584342
0.78660047
0.78450978
0.86247395
0.78503126
0.88996765
0.7947411
0.78656385
0.78657238
0.78712458
0.85556646
0.78654932
0.79043894
0.7600388
0.78708166
0.80189232
0.7993519
0.78783236
0.78657685
0.7865553
0.78576009
0.78677095
0.78780477
0.969993
0.7866675
0.78810897
0.79717952
0.78663925
0.78808968
0.78760222
0.79010453
0.7868749
0.78665715
0.78698439
0.792707
0.78693472
0.81439711
0.81254179
0.78688849
0.78658311
0.79608289
0.80095069
0.78656292
0.83716095
0.84448984
0.81790747
0.83414217
0.78963475
0.91208186
0.7907491
0.79472689
0.7900603
0.80220304
0.96168168
0.87501708
0.78659113
0.80102077
0.78762839
0.7871231
0.78795728
0.79662015
0.78836613
0.78908965
0.89041297
0.93523243
0.7875495
0.96169962
0.8201585
0.78728843
0.88256443
0.78572879
0.78654044
0.78585591
0.78743198
0.78695933
0.80886923
0.78657019
0.78659895
0.8153944
0.78516893
0.81355519
0.79031078
0.78738463
0.78670908
0.81669908
0.78660958
0.79674456
0.78959934
0.78656033
-0.15412253
-0.15412253
-0.15412253
-0.15412253
-0.15412253
-0.15412253
-0.15412253
-0.15412253
-0.15412253
0.83539346
0.78776072
0.78668557
0.81258405
0.82382362
0.78763498
0.78657862
0.78673932
0.78656519
0.79292882
0.80767633
0.84334914
0.79485625
0.78093512
0.81203693
0.78925254
-0.15451482
-0.15451482
-0.15451482
-0.15451482
-0.15451482
-0.15451482
-0.15451482
-0.15451482
0.78576896
0.96573024
0.79105455
0.78726903
0.78708453
0.78894153
0.79113928
0.78701341
0.79166853
0.78690287
0.81146413
0.78934675
0.81799539
0.79175427
0.79949191
0.93522267
0.79105402
0.80971629
0.78660953
0.26013758
0.78431952
0.78446794
0.78760122
0.78669012
0.7898529
0.81660757
0.78695636
-0.15412164
-0.15412164
-0.15412164
-0.15412164
0.78504213
0.79762878
0.7874383
0.78662834
0.86801971
0.78666297
0.7898566
0.7865638
0.81350733
0.81877835
0.78765731
0.78657094
0.79036064
0.78739339
0.78655923
0.80790718
0.79759926
0.78691126
0.7902427
0.78727909
0.78660385
0.84971984
0.7902913
0.83323403
0.81591332
0.7865006
0.78656027
0.82226291
0.80584359
0.77540003
0.78674775
0.7947746
0.8679295
0.78654973
0.91649077
0.79702076
0.78846099
0.78715893
0.79927462
0.79267982
0.78699031
0.808435
0.78663906
0.78660032
0.798051
0.7951892
0.81826738
0.78696961
0.85394573
0.79352233
0.95802287
0.78928353
0.80073084
0.79123068
0.78714764
0.78683718
0.79753866
0.78708226
0.78654827
0.79506364
0.82762025
0.80094611
0.78581541
0.78839303
0.79191156
0.78988098
0.79046161
0.78659093
0.7865714
0.79925503
0.79704925
0.82345643
0.81381489
0.78719522
0.7931014
0.74766177
0.83985264
0.78694305
0.78656497
0.78656227
0.79560803
0.78681672
0.87914434
0.78831918
0.78442342
0.79065136
0.79337643
0.94205646
0.78835409
0.79012135
0.78678382
0.87662728
0.83590195
0.78694706
0.79741895
0.78373877
0.89016246
0.78761709
0.78684045
0.88675736
0.78657706
0.79178825
0.79279585
0.78656172
0.78674171
0.78689164
0.78752661
0.78658428
0.78867296
0.93114491
0.78657546
0.83015808
0.88309152
0.78663004
0.7867639
0.78685888
0.80411555
0.79956854
0.78658943
0.82898828
0.81156274
0.80361329
0.78727785
0.79130685
0.78664213
0.79529504
0.78662719
0.79025952
0.82980746
0.78693061
0.79276124
0.84473779
0.78679668
0.78818033
0.78682574
0.88158652
0.78761933
0.80828396
0.78983792
0.82737184
0.86198783
0.78648144
0.78465571
0.78660847
0.78673764
0.78657509
0.78686957
0.78692643
0.78662965
0.78745455
0.78511328
0.84965023
0.81137385
0.81778593
0.7865697
0.7865372
0.80674393
0.78684528
0.8455645
0.79089731
0.79068363
0.86261687
0.79185558
0.8140513
0.78879231
0.78646349
0.7940917
0.7873397
0.78668693
0.79243151
0.78834316
0.78682633
0.78772086
0.85077174
0.83321432
0.79434626
0.78432332
0.80017188
0.78683266
0.78773589
0.7872513
0.78694606
0.78823023
0.86913015
0.78825632
0.78684465
0.7947171
0.78780639
0.78774528
0.78723154
0.78797972
0.79315071
0.79634241
0.78888287
0.78769274
0.84259436
0.78671569
0.89046016
0.79357316
0.80902371
0.80748443
0.78705012
0.83868665
0.78657001
1.0177756
0.78677088
0.78669913
0.7865635
0.83804505
0.78840471
0.7865768
0.78649223
0.78657139
0.79376032
0.78745194
0.78683538
0.78658722
0.79709693
0.78668404
0.85419495
0.83848173
0.81219104
0.78667747
0.78755581
0.78677916
0.806802
0.78657211
0.78897814
0.80133945
0.78844878
0.78665796
0.80582495
0.78710396
0.98944579
0.78500432
0.82054509
0.26039901
0.78897002
0.78720133
0.78865506
0.80664887
0.78657794
0.78659018
0.79062963
0.78704959
0.78688222
0.79123721
0.78367716
0.80002083
0.78706164
0.78693381
0.79550007
1.0030705
0.78712907
0.78654951
0.79075729
0.85684149
0.78667976
0.78658705
0.8041661
0.78658216
0.81341335
0.78711471
0.78711471
0.78661264
0.7871588
0.78956743
0.79463357
0.78661062
0.78707691
1.0242543
0.78652648
0.83121336
0.78644469
0.79674925
0.7901045
0.78662547
0.81583263
0.79957289
0.78655906
0.78674072
0.82265866
0.78978263
0.80093901
0.78988286
0.7871334
0.78823072
0.83786783
0.7972038
-0.40335624
-0.40335624
-0.40335624
-0.40335624
-0.40335624
-0.40335624
-0.40335624
0.86017471
0.78648432
0.79056182
0.81033894
0.9512638
0.81471256
0.88376441
0.80347901
0.8152326
0.26013758
0.26013758
0.80575545
0.80147035
0.82232369
0.78704543
0.78775876
0.78711908
0.79700374
0.79706246
0.79188955
0.78953683
-0.58785196
-0.58785196
-0.58785196
-0.58785196
-0.58785196
-0.58785196
0.79207564
0.78670055
0.7870412
0.81461237
0.78440099
0.78733717
0.93432487
0.78781549
0.90059353
0.7962093
0.81045864
0.78658084
0.78819719
0.78815117
0.79986953
0.7865681
0.78749549
0.79722455
0.80896968
0.78668191
0.79367597
0.78825504
0.78656159
0.78682384
0.78754486
0.78665054
0.80229379
0.80462581
0.78681802
0.795784
0.80098213
0.78752244
0.84555761
0.80073864
0.78658122
0.78857932
0.7865672
0.8071863
0.78664908
0.78711174
0.81748389
0.80075499
0.79450308
0.78658096
0.81090275
0.78714397
0.85375148
0.82406075
0.83758836
0.78673044
0.80958237
0.78787405
0.90922772
0.78654398
0.78702721
0.79122006
0.7867709
0.78667744
0.86096783
0.80292142
0.78671491
0.8309538
0.78671372
0.85728272
1.0438454
0.78756053
0.7894336
0.80709302
0.78669598
0.78679145
0.78711014
0.99035725
0.78729287
0.78900723
0.79102611
0.83253382
0.78665258
0.95340804
0.83739924
0.7930891
0.7886611
0.78670098
0.7968294
0.78577944
0.79040589
0.78659503
0.78307479
0.78689601
0.78676562
0.79245953
0.78653428
0.78975374
0.79339286
0.78897612
0.79898885
0.78665828
0.92478415
0.78892543
0.78993838
0.92901199
0.78815122
0.78576363
0.78657497
0.8076399
0.78657236
0.78715207
0.78687337
0.79365343
0.78660365
0.785685
0.78826735
0.83938084
0.78496882
0.79504937
0.76240935
0.80279596
0.78709234
0.79187846
0.78659749
0.78658315
0.78714214
0.7987751
0.78875995
0.78717403
0.86803388
0.78670221
0.78718105
0.78673477
0.78706349
0.78803854
0.78658964
0.78841345
0.94078621
0.78655854
0.81555449
0.87132498
0.94959996
0.78709265
0.79045496
0.78623492
0.78668724
0.7869655
0.82596196
0.78523635
0.78882931
0.79470222
0.78668407
0.78438492
0.81136152
0.79665517
0.78624332
0.78865239
0.82702628
0.82482134
0.78650776
0.78665252
0.78658802
0.79914911
1.0195129
0.78730278
1.0203782
0.89345813
0.80320131
0.78715817
0.85408294
0.80795904
1.0865869
0.78850938
0.80360447
0.78706767
0.78798938
0.78655929
0.78656482
0.78950869
0.78829655
0.78669422
0.78877023
0.78648652
1.0890494
0.78595093
0.78658641
0.7869885
0.79022496
0.78673066
0.79246716
0.78614013
0.83162927
0.79951551
0.78680195
0.78670266
0.83753798
0.79246661
0.85502567
0.79155436
0.84063991
1.1444456
0.78953956
0.78967879
0.80158913
0.84124279
0.78841685
0.78690487
0.79419469
0.91816274
0.78744743
0.78748093
0.78678883
0.78839986
0.80213186
0.94394352
0.79222519
0.82238335
0.95030129
0.78764056
0.78650453
0.79323791
0.26039627
0.78651977
0.78664142
0.78674879
0.79623763
0.87970976
0.78832569
0.78666928
0.78848537
0.78777782
0.80399086
0.79399197
0.78758547
0.7868512
0.78669375
0.83023057
0.78672034
0.79353373
0.78670709
0.79446039
0.79958345
0.86027392
0.79730899
0.78707344
0.80941524
0.81018557
0.78769886
0.78973396
0.7863884
0.78907928
0.78670403
0.78708421
0.82326527
0.78664658
0.78657177
0.78682181
0.7875126
0.88519699
0.79167026
0.80302837
0.78604692
0.86416149
0.78658071
0.79799929
0.83424981
0.78661836
0.8187281
0.78658787
0.7865567
0.78621718
0.83528208
0.78655353
0.82708994
0.78957569
0.79211239
0.81115283
0.78676655
0.82671099
0.79356422
0.78945006
0.78850614
0.78446794
0.79091146
0.78725867
0.78638731
0.81205676
0.78678877
0.78659145
0.78683404
0.78862989
0.78960174
0.78543028
0.78661528
0.78656211
0.78719399
0.81582975
0.78726315
0.78686596
0.78694735
1.0999142
0.78664528
0.78721757
0.78787227
0.78683266
0.78936631
0.78657552
0.93497843
0.81022441
0.81582763
0.78733252
0.79706039
0.78367716
0.78653997
0.88006579
0.78811843
0.78908178
0.79258024
0.78949776
0.79763198
0.78731044
0.78680861
0.78858495
0.78659136
0.78668081
0.7878898
0.95844439
0.78772686
0.78684232
0.78684232
0.78659995
0.78618862
0.78693896
0.78661184
0.78655591
0.79980233
0.78755597
0.78876206
0.78428396
0.80218877
0.78771011
0.78693073
0.78656722
0.78677743
0.79049836
0.78711353
0.80415515
0.78656706
0.80734467
0.78934563
0.80581907
0.78681096
0.7888856
0.79389857
0.80607172
0.79137813
0.78338003
0.78667773
0.78657558
0.79532349
0.78748735
0.78832747
0.78697445
0.78367716
0.78742749
0.78689545
0.84275172
0.7854768
0.7988188
0.7865019
0.74877826
0.7865524
0.78786072
0.78714522
0.83387118
0.78678517
0.78659047
0.78671365
0.78705242
0.78885332
0.79441596
0.78656079
0.84293389
0.81826756
0.78850977
0.78674784
0.7913056
0.78801427
0.99172762
0.79168686
0.78660024
0.78401802
0.78941714
0.78959789
0.79020082
0.85922534
0.7867869
0.78675607
0.86191175
0.88156429
0.78680509
0.83295915
0.7926589
0.78656362
0.90676812
0.80453357
0.7869429
0.78721079
0.79540954
0.78820242
0.81536188
0.78872359
0.78792369
0.79175593
0.78845446
0.78885001
0.79135837
0.78682192
0.79094645
0.78748551
0.78700153
0.79147802
0.87834236
0.89666663
0.84308169
0.80630165
0.79320801
0.86232412
0.7867841
0.78658592
0.79031486
0.79258168
0.78642779
0.81182409
0.78753873
0.79623235
0.78667345
0.78659049
0.816228
0.78673489
0.80551729
0.81522614
0.78727373
0.78657394
0.78710769
0.78687898
0.79523873
0.78662964
0.78756245
0.78667956
0.85606469
0.79142326
0.78791403
0.81325023
0.78918047
0.78822104
0.82996494
0.74366887
0.7921802
0.78692539
0.81651143
0.79797283
0.78658842
0.79190231
0.81400158
0.78833848
0.79422675
0.78666673
0.80221783
0.77759286
0.79458597
0.78737208
0.78718003
0.78677537
0.79590388
0.80053075
0.82564246
0.81842332
0.78654861
0.78926538
0.79143292
0.79526045
0.78629928
0.7868416
0.78788708
0.78667607
0.78656496
0.79505347
0.81044545
0.78715152
0.7926887
0.7921866
0.80393496
0.79415948
0.78612981
0.79504151
0.7865543
0.78970653
0.79206753
0.78656671
0.78667718
0.78656489
0.80907623
0.78576154
0.78576154
0.78576154
0.78861612
0.81084352
0.84378317
0.81355297
0.79404714
0.78661417
0.78694536
0.7915015
0.78753242
0.78662034
0.78581124
0.79863534
0.78794142
0.6912973
0.79510841
0.78846025
0.79900059
0.78692481
0.78658435
0.78542628
0.93044767
0.87878449
0.79103315
0.78701907
0.78677227
0.80122035
0.90251715
0.78931917
0.78688611
0.79487843
0.78663329
0.78656467
0.78664325
0.79724685
0.80434562
0.79198479
0.84253971
0.78696927
0.78663516
0.80151945
0.80628291
0.78691178
0.78664109
0.78654749
0.78685577
0.80068936
0.78830587
0.95213815
0.78667106
0.80142068
0.87458593
0.78701586
0.79006821
0.81932107
0.78526009
0.78914575
0.7921574
0.78654805
0.87092643
0.86357226
0.86357226
0.86556169
0.78916892
0.8032396
0.7957671
0.78745418
0.78737584
0.78896501
0.78670315
0.78957575
0.78664787
0.93877516
0.78958034
0.78694721
0.78655706
0.79122917
0.78717288
0.78683674
0.81243252
0.79248431
0.84167863
0.80386953
0.84798268
0.80689358
0.79558172
0.79264983
0.89549764
0.79894018
0.78949498
0.78657959
0.79838979
0.68143821
0.80635751
0.93623414
0.80077494
0.78661956
0.73353422
0.78687709
0.78916996
0.78735301
0.78800551
0.78656125
0.86736058
0.78657445
0.78658512
0.78685584
0.91462084
0.88045965
0.78715886
0.78657278
0.80185422
-0.15452657
-0.15452657
0.78914177
0.78896111
0.7867158
0.79672765
0.78662826
0.78760474
0.78663348
0.78654943
0.7871788
0.78677424
0.82546766
0.78904427
0.79569369
0.91490428
0.78690531
0.84877186
0.78665745
0.79084601
0.78660108
0.88805642
0.89845201
0.78661708
0.79057983
0.80541474
0.78786956
0.78786956
0.78786956
0.78786956
0.7926167
0.78774985
0.78895875
0.78886333
0.82777822
0.78658733
0.78665496
0.79140008
0.81814816
0.8018435
1.0611596
0.78744644
0.78870493
0.79860976
0.78667467
0.78733182
0.79968666
0.89653961
0.83788803
0.80014848
0.8010238
0.78655491
0.97996603
0.78807072
0.79269695
0.78666944
0.79101828
0.7899605
0.79214568
0.78826116
0.7948385
0.85399671
0.85390162
0.78687832
0.79089519
0.80104641
0.7873312
0.78669629
0.93557148
0.787715
0.78988883
0.78908435
0.82364096
0.80222138
0.73842751
0.78703891
0.78587142
0.78967169
0.7991449
0.78661331
0.87906459
0.78942834
0.82754592
0.78658084
0.78517927
0.85605543
0.84593152
0.78669262
0.78731811
0.8030748
0.78658346
0.78667692
0.78661614
0.78649829
0.78904607
0.78895953
0.7853513
0.78650831
0.78663425
0.78722204
0.59237808
0.81312404
0.81965503
0.78701249
0.81374106
0.78923367
0.79534253
0.79772057
0.78400685
0.78683997
0.82938491
0.80605271
0.78782003
0.81495484
0.80758336
0.79254101
0.78721234
0.81213066
0.78769429
0.79459114
0.78660145
0.82594202
0.83950507
0.78660751
0.78656066
0.80488796
0.78893433
0.80515344
0.78969336
0.78500432
0.7980496
0.78803168
0.78663219
0.78669877
0.78658974
0.78933175
0.82005789
0.81354545
0.79512124
0.88339572
0.7869019
0.78677614
0.78675165
0.78672834
0.7999492
0.78652298
0.78686995
0.78741477
0.78693918
0.79010421
0.85315428
0.78682558
0.79304607
0.78656903
0.81164761
0.78804552
0.79017821
0.78258886
0.78744142
0.78657995
-0.15444013
-0.15444013
-0.15444013
-0.15444013
-0.15444013
-0.15444013
-0.15444013
-0.15444013
0.78700792
0.93890024
0.78562733
0.78656675
0.78678814
0.80282557
0.79208445
0.79761271
0.87515418
0.79076327
0.82036513
0.78571358
0.50643515
0.9579369
0.7870203
0.89166475
0.93914304
0.79327512
0.7897211
0.78676679
0.78088903
0.78888981
0.79180906
0.82001511
0.80541616
0.79005756
0.78446966
0.87841346
0.78893944
0.7874531
0.78694145
1.0197271
0.79039657
0.7861242
0.82608066
0.79388298
0.79525885
0.81123169
0.78697545
0.79805067
0.78656418
0.78917761
0.78661575
0.79738873
0.80577128
0.79345619
0.80641992
0.78693903
0.78745157
0.8427348
0.82666082
0.78674122
0.8701126
0.7865573
0.78863666
0.80768029
0.78663683
0.79343355
0.82507617
0.78752171
0.78668545
0.81067077
0.80656975
0.78658107
0.78667339
0.78657892
0.78772187
0.79259672
0.79145024
0.81867776
0.90343663
0.78704062
0.78622313
0.7871657
0.7871213
0.78670798
0.86743168
0.78781586
0.79467946
0.79282223
0.786577
0.79229527
0.79786374
0.793046
0.83537976
0.78648564
0.78660697
0.7865868
0.7868705
0.78948729
0.88918651
0.84499659
0.7878695
0.78663511
0.78656673
0.78661771
0.7878325
0.78661169
0.79003311
0.7893644
0.78776248
0.78946331
0.79656653
0.78860812
0.7871909
0.78214816
0.78725301
0.78682105
0.78820877
0.78740184
0.26039811
0.26039811
0.79974522
0.79956159
0.79555034
0.80483404
0.83290888
0.79570764
0.78662908
0.79295345
0.78714786
0.78661932
0.79168164
0.79238936
0.78657325
0.91182526
0.7867899
0.78674234
0.78671302
0.78703889
0.78646153
0.78860329
0.7865837
0.91597992
0.83675456
0.79005017
0.78668578
0.79031889
0.79039641
0.78659992
0.81290164
0.80017192
0.78774546
0.86890009
0.79180588
0.78856997
0.78692417
0.78671265
0.83591086
0.78657474
0.78690471
0.78845558
0.80480508
0.78707699
0.79089497
0.78705933
0.78657226
0.79985851
0.78657322
0.84613339
0.93570086
0.78828463
0.78779256
0.78785533
0.79329932
0.85533282
0.78662001
0.78869571
0.78838742
0.78678817
0.78662344
0.78656753
0.78695526
0.79048947
0.81142916
0.79062367
0.78661144
0.78682685
0.87559801
0.82916486
0.84838479
0.78656261
0.78537032
0.78576129
0.78780407
0.80091055
0.80656571
0.81513935
0.81349453
0.83272257
0.79642979
0.78669018
0.79863259
0.7865653
0.79422791
0.79355036
0.78698851
0.78659385
0.7865784
0.80889133
0.78660792
0.79206675
0.81805134
0.78697126
0.89503869
0.78951944
0.7866149
0.79286251
0.78716267
0.78868792
0.93301742
0.78673905
0.78886695
0.78752191
0.78715236
0.78674507
0.78743398
0.78862831
0.7849202
0.8323787
0.7872359
0.84207405
0.78663266
0.78659123
0.78828638
0.78751054
0.79173105
0.81635661
0.78663323
0.80726267
0.78658735
0.79950106
0.78671777
0.79822291
0.78688699
0.78772043
0.78689841
0.80610112
0.78731858
0.79575074
0.8946103
0.7932382
0.87945805
0.89695746
0.87318576
0.7866437
0.81783871
0.78697381
0.78697065
0.79433964
0.79682063
0.78731879
0.78647308
0.81324579
0.79446999
0.79686616
0.78698363
0.81529034
0.95074348
0.78707575
0.78945884
0.80959618
0.80710819
0.78795435
0.78785836
0.79259801
1.020468
0.78787837
0.78652397
0.78458111
0.79386648
0.78660083
0.7867129
0.78686198
0.79864545
0.81842182
0.85422807
0.79062825
0.78842403
0.93927117
0.78724261
0.79907631
0.7990634
0.85300733
0.78932146
1.0609617
0.78657799
0.7868535
0.79308691
0.78763376
0.79988111
0.78660698
0.79180496
0.79603785
0.79088244
0.79783837
0.7868856
0.78765854
0.78681274
0.78658671
0.78733031
0.78703181
0.7866494
0.70736602
0.78660443
0.78655936
0.79141091
0.79042
0.79868049
0.83902237
0.79920053
0.81826166
0.8417716
0.80540074
1.1454625
0.78657911
0.78670779
0.78681551
0.78720105
1.084672
0.80213984
0.7866062
0.78729915
0.81230359
0.78832126
0.7867762
0.78675159
0.78888619
0.78914892
0.89895924
0.80321594
0.85006597
0.80491981
-0.40335535
-0.40335535
-0.40335535
0.78669861
0.81023961
0.79076143
0.78656077
0.78584976
0.81052178
0.79403112
0.88415789
0.78676292
0.94353842
0.78722484
1.0196402
0.79515325
0.81351687
0.7891019
0.78682092
0.78671119
0.815597
0.82252445
0.7852809
0.80016528
0.7868419
0.84279169
0.80174215
0.78657862
0.79493476
0.79385467
0.78665561
0.78728984
0.79014767
0.78652014
0.79243688
0.82566524
0.78676487
0.78921928
0.788133
0.78814366
0.78656364
0.80977784
0.90066864
0.84895555
0.79200359
0.79200359
0.79204898
0.81341941
0.78771065
0.79622433
0.78905554
0.78805975
0.7868919
0.78662953
0.9857723
0.78656065
0.7867857
0.78679782
0.83386267
0.78838247
0.78775452
0.78955718
0.7865257
0.78985546
0.7865509
0.79233232
0.77611137
0.29046022
0.29046022
0.78802832
0.78661012
0.78658612
0.78656328
0.79118484
0.788118
0.80991563
0.87019624
0.78702147
0.78655896
0.79164796
0.78729232
0.78759983
0.82961086
0.78656649
0.79473311
0.91253544
0.79100846
0.90912585
0.94914553
0.83394973
0.80264768
0.80821832
0.78983501
0.78446794
0.78652878
0.80381408
0.79573854
0.78824044
0.78699309
0.79351507
0.81034904
0.81631189
0.78669866
0.80554505
0.85329502
0.79110646
0.79420438
0.80398755
0.78673996
0.78705641
0.80098462
0.78733753
0.78669473
0.8215195
0.78659449
0.79619671
0.78767445
0.87594159
0.78659985
0.78741601
0.66130506
0.91650473
0.78805229
0.79179815
0.7867551
0.79107045
0.78666206
0.79497802
0.78832312
0.79330254
0.78682085
0.78673684
0.78658522
0.7890901
0.85308482
0.78657646
0.78584061
0.7873117
0.78732131
0.78656845
0.78656669
0.93564981
0.78674873
0.79042109
0.80873538
0.78433245
0.80248593
0.80590512
0.79090414
0.78701051
0.78684032
0.81970103
0.80796674
0.78659167
0.78815686
0.78827768
0.78661659
0.78675117
0.81000702
0.78367868
0.78681802
0.7866239
0.86045959
0.8041415
0.80200031
0.78695629
0.79196676
0.78814021
0.83816455
0.84446638
0.7868275
0.78666129
0.78660003
0.90626212
0.78848197
0.78915169
0.78176502
0.80086899
0.78680447
0.78543071
0.78946866
0.78685114
0.786578
0.79181198
0.78665175
0.78657969
0.78656309
0.78445838
0.78832641
1.1101613
0.78669232
0.82391877
0.76222883
0.79135045
0.81277044
0.81226832
0.78862202
0.78684317
0.79417693
0.80557033
0.78742276
0.78686038
0.78738647
0.79327191
0.79865394
0.81691566
0.78788201
0.80607287
0.78876261
0.83281297
0.78668799
0.8240049
0.819754
0.80831921
0.79097743
0.84573651
0.78907333
0.80072947
0.78698292
0.80424433
0.78656537
0.81768973
0.79684999
0.83109598
0.79093197
0.78750867
0.78684266
0.78665302
0.78790936
0.78652418
0.79010486
0.7866246
0.78664103
0.78661915
0.78664792
0.80019549
0.80553791
0.93512555
0.80682265
0.78690803
0.79178454
0.78648541
0.78815267
0.78775595
0.78655912
0.79413389
0.78698741
1.1024286
0.78656228
0.78658862
0.7866877
0.78729646
0.78924999
0.78672281
0.79241098
0.78653887
0.85369872
0.78654616
0.78749463
0.78342769
0.78793164
0.78900869
0.84438536
0.80433241
0.78662087
0.78822821
0.78720448
0.78774522
0.78815331
0.78680869
0.78680869
0.78786224
0.78732698
0.79342295
0.79490783
0.7865955
0.78932893
0.78669484
0.78661692
0.7894421
0.97394919
0.78752623
0.80457353
0.87675204
0.78656952
0.83560211
0.78668889
0.78786549
0.78914155
0.87817059
0.78659792
0.7870194
0.79422809
0.78758191
0.78687255
0.78840258
0.78546994
0.84129216
0.79109879
0.8604193
0.77850414
0.78710751
0.91375591
0.78662163
0.78656334
0.78669144
0.78917172
0.78672658
0.78446794
0.7844685
0.7866769
0.78648532
0.78692218
0.80522979
0.82292964
0.78901153
0.93432487
0.81471533
0.83895742
0.79642653
0.789628
0.78550532
0.80052183
1.1115168
0.81110021
0.7940407
0.89000805
0.78656123
0.78656375
0.7894291
0.78936886
0.78592139
0.78988695
0.88551484
0.78990856
0.9648886
0.91106466
0.78568904
0.81679748
0.78659109
0.78683462
0.79677371
0.78682036
0.8042729
0.81507774
0.80787747
0.80035314
0.81330394
0.79377773
0.78674905
0.78667918
0.86430221
0.78991163
0.7868027
0.78697243
0.78753373
0.78721105
0.78685809
0.78657117
0.78657242
0.78658369
0.82382444
0.80587328
0.78763208
0.78665566
0.78855059
0.78660448
0.80211552
0.78629287
0.84225973
0.78671235
0.78542356
0.79686998
0.86243314
0.79161845
0.78735358
1.1029854
0.78652082
0.78912551
0.78796852
0.81651914
0.80039631
0.87990625
0.85662053
0.80165371
0.78671843
0.78782122
0.78782122
0.80405879
0.80852708
0.79255368
0.78691889
0.91201234
0.78670828
0.79181435
0.79758087
0.81544779
0.80516088
0.82449666
0.79359023
0.78727524
0.78661371
0.79741607
0.84844015
0.78759647
0.79153893
0.89956039
0.78939468
0.78839999
0.81966278
0.78751085
0.80761946
0.79858263
0.78994325
0.79053317
0.80201649
0.78729165
0.78658619
0.78654787
0.79323607
0.80456822
0.78674827
0.82172277
0.78656077
0.79947492
0.78666123
0.78554591
0.79197475
0.86226496
0.786594
0.90715108
0.78679351
0.79000518
0.78665998
0.78863058
0.79287708
0.79441906
0.78680711
0.78711868
0.80460818
0.79360112
0.7901184
0.87335183
0.81633956
0.85911169
0.79369495
0.83066504
0.92859089
0.78920509
0.78658101
0.78782453
0.78799324
0.79354358
0.82834343
0.95701829
0.79546809
0.78657515
0.84442185
0.78774341
0.78706385
0.79804749
0.78985632
0.87890337
0.78664829
0.78686236
0.7885343
0.82808828
0.79796713
0.7880721
0.84660217
1.0383322
0.78653418
0.79243087
0.78579129
0.78680744
0.79678164
0.83439282
0.84411511
0.78367716
0.78653522
0.82396864
0.79547322
0.78711733
0.78731132
0.81846548
0.79334262
0.7879934
0.81542251
0.80317308
0.78657673
0.78718851
0.79256662
0.78699302
0.78667323
0.79459792
0.78705265
0.79272282
0.78722338
0.82335987
0.78934958
0.79757339
0.26013752
0.26013752
0.868481
0.78655883
0.78913657
0.78646104
0.78710637
0.78656748
0.79419328
0.78779523
0.78584766
0.78906141
0.78674536
0.78830848
0.78656278
0.7894115
0.80759803
0.78803673
0.78671649
0.78754359
0.80142185
0.7885916
0.79231793
0.78675441
0.78662584
0.79123324
0.7866194
0.79208888
0.78770472
0.78672501
-0.58785196
-0.58785196
-0.58785196
-0.58785196
-0.58785196
0.78655267
0.78752183
0.78721423
0.78792634
0.78775213
0.80320863
0.80444208
0.7894897
0.79513839
0.78692341
0.78804089
0.79092021
0.80097814
0.78602475
0.78665055
0.80071263
0.78789609
0.84813309
0.78863661
0.78797101
0.78809029
0.78694198
0.95823877
0.78659166
0.86105582
0.78657852
0.82182819
0.78657122
0.78685735
0.78751995
0.79964981
0.85489335
0.78798087
0.78821639
0.80003325
0.80143731
0.78663547
0.7873166
0.78659866
0.78873427
0.80481715
0.79646015
0.798155
0.79790072
0.78924181
0.78655721
0.79879113
0.83993658
0.79040356
0.787865
0.80022201
0.78708311
0.81739463
0.7904412
0.84200109
0.81527386
0.78748775
0.78764578
0.78938513
0.78661759
-0.58785196
-0.58785196
-0.58785196
-0.58785196
-0.58785196
-0.58785196
-0.58785196
-0.58785196
-0.58785196
-0.58785196
-0.58785196
-0.58785196
-0.58785196
-0.58785196
-0.58785196
-0.58785196
-0.58785196
0.8006224
0.78657916
0.78688199
0.78661439
0.78694901
0.78650491
0.78753651
0.78664617
0.83447547
0.82564339
1.0198699
0.7988554
0.83153898
0.78899998
0.78676364
0.78734016
0.7865713
0.78687345
1.0363925
0.80422883
0.78660423
0.80029227
-0.2658054
0.78875024
0.79652217
0.82386194
0.79043643
0.78609268
0.78751115
0.80090055
0.80310848
0.78675741
0.78664254
0.78655932
0.78987932
0.78657364
0.79013277
0.78673232
0.78713809
0.79181597
0.79731422
0.78657721
0.80304155
0.79894632
0.79606769
0.78658885
0.824488
0.7877371
0.78640114
0.78657758
0.78424175
0.25894089
0.25894089
0.25894089
0.80721352
0.78668717
0.7763039
0.90637641
0.79429469
0.81524285
0.7864276
0.8103836
0.80110676
0.78673515
0.84188075
0.81311527
-0.58785196
-0.58785196
-0.58785196
-0.58785196
-0.58785196
-0.58785196
-0.58785196
-0.58785196
-0.58785196
-0.58785196
-0.58785196
-0.58785196
-0.58785196
-0.58785196
-0.58785196
-0.58785196
-0.58785196
-0.58785196
-0.58785196
-0.58785196
-0.58785196
-0.58785196
-0.58785196
-0.58785196
-0.58785196
-0.58785196
0.78824456
0.82758435
0.78670168
0.78683443
0.78998619
0.78772787
0.85117555
0.79600019
0.87627806
0.78654084
0.78696779
0.78675531
0.79356741
0.78675143
0.81209792
0.79961743
0.78693684
0.77757178
0.80252063
0.8240159
0.78660072
0.78552804
0.79774886
0.79504985
0.78685283
0.8785561
0.78991415
0.8358724
0.78925733
0.86428091
0.79361835
0.78779721
0.78662946
0.78596155
0.79976086
0.78758616
0.79309838
0.78678287
0.78794612
0.7857822
0.78659178
0.786769
0.78870719
0.78660502
0.78668742
0.78951404
0.78644437
0.78658137
0.78653797
0.79432039
0.7881845
0.80624371
0.81824714
0.8886914
0.86419606
0.26013752
0.26013752
0.26013752
0.80327595
0.90916335
0.78753688
0.78664092
0.78972826
0.79912503
0.7951984
0.79134341
0.78665858
0.78641757
0.7872765
0.81327718
0.89151707
0.78657173
0.81994443
0.80917166
0.79372992
0.84747554
0.78663399
0.78650604
0.78696857
0.78843804
0.79480139
0.80826863
0.81484986
0.79405426
0.78750315
0.78669095
0.78657224
0.78667254
0.78699972
0.78663573
0.78670628
0.78894441
0.78651956
0.80717596
0.79165287
0.78890821
0.82758998
0.90807597
0.84615202
0.78647316
0.80392057
0.78728903
0.78759645
0.78925791
0.78762107
0.79856399
0.7876632
0.79336068
0.78933087
1.0567274
0.78657359
0.78694664
0.78860187
0.78677895
0.82257183
0.81473598
0.78673361
0.78579815
0.78658329
0.78656134
0.78445297
0.79095327
0.80637573
0.79061592
0.78644182
0.80894441
0.78657932
0.78290538
0.78681585
0.79009203
0.93291559
0.78656358
0.79842256
0.80805648
0.81008912
0.78862985
0.7866737
0.79819224
0.78582572
0.78835293
0.79178921
0.802249
0.78738253
0.79472604
0.78296891
0.78660843
0.78806641
0.78747421
0.78693899
0.85327917
0.84498678
0.80309983
0.89209227
0.78895058
0.78724222
0.78662489
0.78754459
0.78648854
0.7869861
0.78656756
0.78655784
0.7867079
0.84495382
0.78899747
0.78658764
0.79404851
0.80278459
0.79103152
1.0548306
0.80525971
0.78967521
0.7912506
0.92393669
0.80135755
0.73368342
0.78654777
0.78677827
0.78753415
0.7869359
0.78682133
0.79217668
0.81347454
0.8573913
0.79110755
0.78733112
0.79054393
0.78671744
0.8535796
0.9828105
0.78666488
0.87721462
0.7853494
0.78660978
0.7867276
0.82905149
0.81861194
0.95058201
0.85271973
0.79034103
0.79329859
0.81571708
0.80236245
0.83416194
0.80908672
0.90245802
0.78663672
0.79183528
0.78665131
0.78682743
0.787567
0.78656114
0.78819819
0.80230329
0.82064685
0.41762599
0.87008033
0.78276108
0.78653875
0.78729335
0.78875318
0.79005576
0.78827097
0.78659827
0.78940075
0.78750702
0.78658946
0.8004428
0.78670529
0.79266498
0.84002808
0.78818789
0.78735101
0.78675824
0.78656333
0.80903403
0.78660918
0.79663733
0.7867198
0.79806189
0.78644774
0.78888392
0.79856557
0.78992937
0.78870663
0.78661735
0.80004912
0.78258886
0.82606644
0.82833974
0.78818406
0.7936304
1.1648609
0.7966044
0.78671805
0.78657069
0.78857794
0.80136873
0.89106234
0.82115205
0.79439342
0.78736948
0.79469446
0.78833351
0.78475158
0.79167823
0.78884666
0.78788004
0.79770003
0.93309687
0.78674769
0.78951267
0.79097468
0.79137831
0.78799221
0.7884699
0.78705918
0.80403397
0.78659044
0.82665392
0.78765176
0.78687329
0.87996198
0.90778789
0.78565531
0.80313057
0.79555334
0.85779602
0.78658354
0.79257338
0.78901831
0.79192907
0.64461948
0.78667463
0.78748924
1.0608182
0.78658338
0.81523442
0.78649162
0.7886598
0.78661427
0.78701493
0.79214747
0.78662155
0.77595261
0.78657954
0.79844776
0.78660476
0.80963651
0.79152272
0.80855006
0.78746194
0.78797882
0.96280603
0.78630725
0.81773078
0.78697232
0.79329253
0.78878883
0.78657048
0.78653826
0.78667264
0.79401303
0.7956516
0.78673528
0.80181112
0.78672387
0.81506711
0.79030627
0.78928043
0.78834886
0.82371986
0.79102773
0.83032939
0.78979967
0.78722314
0.79858662
0.78614344
0.78726322
0.81016579
-0.58785196
-0.58785196
-0.58785196
-0.58785196
-0.58785196
-0.58785196
-0.58785196
-0.58785196
-0.58785196
-0.58785196
-0.58785196
-0.58785196
-0.58785196
-0.58785196
-0.58785196
-0.58785196
-0.58785196
-0.58785196
-0.58785196
-0.58785196
-0.58785196
-0.58785196
-0.58785196
-0.58785196
-0.58785196
-0.58785196
-0.58785196
0.79400307
0.79238609
0.78614455
0.7866874
0.78718672
0.78441075
0.78859898
0.78692949
0.78677021
0.78652171
0.97705473
0.94804741
0.79309685
0.84091608
0.78765349
0.78516795
0.78664641
0.78663165
0.78680764
0.77255193
0.78660869
0.78727405
0.78694403
0.78693421
0.78656425
0.80209593
0.78590184
0.78656127
0.78657922
0.7889674
0.78839122
0.78650351
0.79085435
0.78781626
0.81642294
0.78787552
0.78666978
0.78660098
0.94065383
0.78662725
0.80714667
0.7914447
0.78556329
0.84263764
0.79256304
0.7863082
0.84621774
0.80513195
0.78689047
0.78656362
0.78687699
1.0199003
0.8012869
0.79557543
0.77140901
0.77286163
0.78644193
0.78655905
0.78741233
0.78693431
0.88292562
0.78655859
0.84002808
0.78656286
0.79576711
0.79030087
0.81744516
0.80196471
0.80619839
0.79152583
0.78750739
0.79184412
0.78668199
0.78763035
0.78657482
0.79487301
0.81056202
0.78711051
0.78711051
0.82722252
