Scanning examples...done
Reading examples into memory...100..200..300..400..500..600..700..800..900..1000..1100..1200..1300..1400..1500..1600..1700..1800..1900..2000..2100..2200..2300..2400..2500..2600..2700..2800..2900..3000..3100..3200..3300..3400..3500..3600..3700..3800..OK. (3815 examples read)

Number of examples: 3815, linear space size: 0

estimating ...
Setting default regularization parameter C=1.0000
Optimizing...........................................................................................................................................................................................................................................................................................................................................................................................................................................................................................................................................................................................................................................................................................................................................................................................................................................................................................................................................................................................................................................................................................................................................................................................................................................................................................................................................................................................................................................................................................................................................................................................................................................................................................................................................................................................................................................................................................................................................................................................................................................................................................................................................................................................................................................................................................................................................................................................................................................................................................................................................................................................................................................................................................................................................................................................................................................................................................................................................................................................................................................................................................................................................................................................................................................................................................................................................................................................................................................................................................................................................................................................................................................................................................................................................................................................................................................................................................................................................................................................................................................................................................................................................................................................................................................................................................................................................................................................................................................................................................................................................................................................................................................................................................................................................................................................................................................................................................................................................................................................................................................................................................................................................................................................................................................................................................................................................................................................................................................................................................................................................................................................................................................................................................................................................................................................................................................................................................................................................................................................................................................................................................................................................................................................................................................................................................................................................................................................................................................................................................................................................................................................................................................................................................................................................................................................................................................................................................................................................................................................................................................................................................................................................................
 Checking optimality of inactive variables...done.
 Number of inactive variables = 1140
done. (6876 iterations)
Optimization finished (1 misclassified, maxdiff=0.00100).
Runtime in cpu-seconds: 17.96
Number of SV: 3807 (including 1395 at upper bound)
L1 loss: loss=560.96948
Norm of weight vector: |w|=47.09336
Norm of longest example vector: |x|=1.00000
Estimated VCdim of classifier: VCdim<=2218.78450
Computing XiAlpha-estimates...done
Runtime for XiAlpha-estimates in cpu-seconds: 0.01
XiAlpha-estimate of the error: error<=36.57% (rho=1.00,depth=0)
XiAlpha-estimate of the recall: recall=>97.75% (rho=1.00,depth=0)
XiAlpha-estimate of the precision: precision=>63.67% (rho=1.00,depth=0)
Number of kernel evaluations: 10204880
Writing model file...done
