Scanning examples...done
Reading examples into memory...100..200..300..400..500..600..700..800..900..1000..1100..1200..1300..1400..1500..1600..1700..OK. (1702 examples read)

Number of examples: 1702, linear space size: 0

estimating ...
Optimizing...........................................................................................................................................................................................................................................................................................................................................................................................................................................................................................................................................................................................................................................................................................................................................................................................................................................................................................................................................................................................................................................................................................................................................................................................................................................................................................................................................................................................................................................................................................................................................................................................................................................................................................................................................................................................................................................................................................................................................................................................................................................................................................................................................................................................................................................................................................................................................................................................................................................................................................................................................................................................................................................................................................................................................................................................................................................................................................................................................................................................................................................................................................................................................................................................................................................................................................................................................................................................................................................................................................................................................................................................................................................................................................................
 Checking optimality of inactive variables...done.
 Number of inactive variables = 816
done. (3564 iterations)
Optimization finished (0 misclassified, maxdiff=0.00095).
Runtime in cpu-seconds: 2.59
Number of SV: 785 (including 0 at upper bound)
L1 loss: loss=0.00000
Norm of weight vector: |w|=34.73742
Norm of longest example vector: |x|=1.00000
Estimated VCdim of classifier: VCdim<=1207.68858
Computing XiAlpha-estimates...done
Runtime for XiAlpha-estimates in cpu-seconds: 0.01
XiAlpha-estimate of the error: error<=22.62% (rho=1.00,depth=0)
XiAlpha-estimate of the recall: recall=>83.05% (rho=1.00,depth=0)
XiAlpha-estimate of the precision: precision=>88.02% (rho=1.00,depth=0)
Number of kernel evaluations: 1089083
Writing model file...done
